<?xml version="1.0" encoding="UTF-8" standalone="no"?>
<svg
   width="24"
   height="24"
   id="svg11024"
   version="1.1"
   inkscape:version="1.4 (e7c3feb100, 2024-10-09)"
   sodipodi:docname="pencil.svg"
   viewBox="0 0 22.5 22.5"
   xmlns:inkscape="http://www.inkscape.org/namespaces/inkscape"
   xmlns:sodipodi="http://sodipodi.sourceforge.net/DTD/sodipodi-0.dtd"
   xmlns="http://www.w3.org/2000/svg"
   xmlns:svg="http://www.w3.org/2000/svg"
   xmlns:rdf="http://www.w3.org/1999/02/22-rdf-syntax-ns#"
   xmlns:cc="http://creativecommons.org/ns#"
   xmlns:dc="http://purl.org/dc/elements/1.1/">
  <sodipodi:namedview
     id="base"
     pagecolor="#808080"
     bordercolor="#666666"
     borderopacity="1.0"
     inkscape:pageopacity="0"
     inkscape:pageshadow="2"
     inkscape:zoom="2.8284271"
     inkscape:cx="-35.885669"
     inkscape:cy="93.691648"
     inkscape:document-units="px"
     inkscape:current-layer="layer1"
     showgrid="true"
     showborder="true"
     inkscape:snap-bbox="true"
     inkscape:window-width="1920"
     inkscape:window-height="1052"
     inkscape:window-x="0"
     inkscape:window-y="0"
     inkscape:window-maximized="1"
     inkscape:snap-global="true"
     showguides="true"
     inkscape:guide-bbox="true"
     fit-margin-top="0"
     fit-margin-left="0"
     fit-margin-right="0"
     fit-margin-bottom="0"
     inkscape:bbox-paths="true"
     inkscape:snap-bbox-edge-midpoints="false"
     inkscape:snap-bbox-midpoints="false"
     inkscape:bbox-nodes="true"
     inkscape:snap-others="true"
     inkscape:snap-nodes="false"
     inkscape:snap-object-midpoints="false"
     units="px"
     inkscape:snap-page="true"
     inkscape:object-paths="false"
     inkscape:object-nodes="true"
     inkscape:snap-smooth-nodes="true"
     inkscape:snap-grids="false"
     inkscape:snap-center="false"
     inkscape:snap-to-guides="true"
     inkscape:document-rotation="0"
     inkscape:showpageshadow="2"
     inkscape:pagecheckerboard="0"
     inkscape:deskcolor="#808080">
    <inkscape:grid
       id="grid11941"
       type="xygrid"
       snapvisiblegridlinesonly="true"
       enabled="true"
       visible="true"
       empspacing="24"
       originx="-299.9792"
       originy="116.24425"
       color="#ff4e4e"
       opacity="0.662745"
       empcolor="#ffe63f"
       empopacity="0.8627451"
       spacingy="0.9375"
       spacingx="0.9375"
       units="px" />
    <sodipodi:guide
       position="-412.62241,184.2388"
       orientation="1,0"
       id="guide1126"
       inkscape:locked="false" />
    <sodipodi:guide
       position="-410.99947,195.55081"
       orientation="0.70710678,0.70710678"
       id="guide1137"
       inkscape:locked="false" />
    <sodipodi:guide
       position="-406.80087,184.88463"
       orientation="0.92560877,0.37848172"
       id="guide1139"
       inkscape:locked="false" />
    <sodipodi:guide
       position="-411.06162,195.55081"
       orientation="1,0"
       id="guide1141"
       inkscape:locked="false" />
    <sodipodi:guide
       position="-405.24132,185.54761"
       orientation="0.39127249,-0.92027487"
       id="guide1147"
       inkscape:locked="false" />
    <sodipodi:guide
       position="-405.23417,176.57601"
       orientation="-0.92560834,-0.37848275"
       id="guide1157"
       inkscape:locked="false" />
    <sodipodi:guide
       position="-405.24132,185.54761"
       orientation="0.92560574,0.37848912"
       id="guide1159"
       inkscape:locked="false" />
    <sodipodi:guide
       position="-362.02551,148.59181"
       orientation="1,0"
       id="guide1178"
       inkscape:locked="false" />
    <sodipodi:guide
       position="-359.9796,148.59911"
       orientation="1,0"
       id="guide1180"
       inkscape:locked="false" />
    <sodipodi:guide
       position="14.04404,174.375"
       orientation="0,-1"
       id="guide1127"
       inkscape:locked="false" />
  </sodipodi:namedview>
  <defs
     id="defs11026">
    <foreignObject
       id="foreignObject5"
       requiredExtensions="http://ns.adobe.com/AdobeIllustrator/10.0/"
       height="1"
       width="1"
       y="0"
       x="0" />
  </defs>
  <metadata
     id="metadata11029">
    <rdf:RDF>
      <cc:Work
         rdf:about="">
        <dc:format>image/svg+xml</dc:format>
        <dc:type
           rdf:resource="http://purl.org/dc/dcmitype/StillImage" />
        <cc:license
           rdf:resource="https://en.wikipedia.org/wiki/MIT_License" />
      </cc:Work>
    </rdf:RDF>
  </metadata>
  <g
     style="display:inline;opacity:1"
     transform="translate(-325.11264,-980.77481)"
     id="layer1"
     inkscape:groupmode="layer"
     inkscape:label="Cursors">
    <path
       style="color:#000000;font-style:normal;font-variant:normal;font-weight:normal;font-stretch:normal;font-size:medium;line-height:normal;font-family:Sans;-inkscape-font-specification:Sans;text-indent:0;text-align:start;text-decoration:none;text-decoration-line:none;letter-spacing:normal;word-spacing:normal;text-transform:none;writing-mode:lr-tb;direction:ltr;baseline-shift:baseline;text-anchor:start;display:inline;overflow:visible;visibility:visible;opacity:0.2;fill:#000000;fill-opacity:1;fill-rule:nonzero;stroke:none;stroke-width:1.875;marker:none;enable-background:accumulate"
       d="m 331.17623,984.52717 a 0.93759375,0.93759375 0 0 1 0.55664,0.26367 l 11.80664,11.83599 a 0.93759375,0.93759375 0 0 1 0.20508,0.3808 l 0.99609,2.9883 a 0.93759375,0.93759375 0 0 1 -1.17188,1.17197 l -2.98828,-0.9962 a 0.93759375,0.93759375 0 0 1 -0.38086,-0.20507 l -11.80664,-11.8359 a 0.93759375,0.93759375 0 0 1 0,-1.3477 l 1.99219,-1.99219 a 0.93759375,0.93759375 0 0 1 0.79102,-0.26367 z"
       id="path1236"
       inkscape:connector-curvature="0" />
    <path
       inkscape:connector-curvature="0"
       id="path4801-6-4-9"
       d="m 331.17623,982.65217 a 0.93759375,0.93759375 0 0 1 0.55664,0.26367 l 11.80664,11.83599 a 0.93759375,0.93759375 0 0 1 0.20508,0.3808 l 0.99609,2.9883 a 0.93759375,0.93759375 0 0 1 -1.17188,1.1719 l -2.98828,-0.9961 a 0.93759375,0.93759375 0 0 1 -0.38086,-0.2051 l -11.80664,-11.8359 a 0.93759375,0.93759375 0 0 1 0,-1.3477 l 1.99219,-1.99219 a 0.93759375,0.93759375 0 0 1 0.79102,-0.26367 z"
       style="color:#000000;font-style:normal;font-variant:normal;font-weight:normal;font-stretch:normal;font-size:medium;line-height:normal;font-family:Sans;-inkscape-font-specification:Sans;text-indent:0;text-align:start;text-decoration:none;text-decoration-line:none;letter-spacing:normal;word-spacing:normal;text-transform:none;writing-mode:lr-tb;direction:ltr;baseline-shift:baseline;text-anchor:start;display:inline;overflow:visible;visibility:visible;opacity:1;fill:#000000;fill-opacity:1;fill-rule:nonzero;stroke:none;stroke-width:1.875;marker:none;enable-background:accumulate" />
    <path
       sodipodi:nodetypes="ccccccccccc"
       inkscape:connector-curvature="0"
       id="path4801-6-4"
       d="m 331.05904,983.56037 11.80664,11.83596 0.99609,2.9883 -2.98828,-0.9961 -11.80664,-11.836 z m -0.0293,1.34765 -0.64453,0.64451 1.23047,1.2305 0.64453,-0.6445 z"
       style="display:inline;opacity:1;fill:#ffffff;fill-opacity:1;stroke:none;stroke-width:0.9375" />
  </g>
  <g
     style="display:none;opacity:1"
     inkscape:groupmode="layer"
     inkscape:label="Web Slicer"
     id="webslicer-layer"
     transform="translate(-325.11264,-259.41263)"
     sodipodi:insensitive="true">
    <rect
       id="pencil"
       x="-347.61264"
       y="259.41263"
       width="22.5"
       height="22.5"
       style="display:inline;opacity:0.5;fill:#ccff00;stroke-width:0.703125"
       transform="scale(-1,1)">
      <desc
         id="desc36711">format: png
dpi: 90
layout-disposition: bg-el-norepeat
layout-position-anchor: tl</desc>
    </rect>
  </g>
  <style
     type="text/css"
     id="style3760">
#P1 {fill:url(#LO)}
rect {opacity:.40740739;fill:#000cff;width:.50507629;height:0}
</style>
  <style
     type="text/css"
     id="style3828">
#P1 {fill:url(#LO)}
rect {opacity:.40740739;fill:#000cff;width:.50507629;height:0}
</style>
</svg>
