<?xml version="1.0" encoding="UTF-8" standalone="no"?>
<svg
   width="24"
   height="24"
   id="svg11024"
   version="1.1"
   inkscape:version="1.4 (e7c3feb100, 2024-10-09)"
   sodipodi:docname="closedhand.svg"
   viewBox="0 0 22.5 22.5"
   xmlns:inkscape="http://www.inkscape.org/namespaces/inkscape"
   xmlns:sodipodi="http://sodipodi.sourceforge.net/DTD/sodipodi-0.dtd"
   xmlns="http://www.w3.org/2000/svg"
   xmlns:svg="http://www.w3.org/2000/svg"
   xmlns:rdf="http://www.w3.org/1999/02/22-rdf-syntax-ns#"
   xmlns:cc="http://creativecommons.org/ns#"
   xmlns:dc="http://purl.org/dc/elements/1.1/">
  <sodipodi:namedview
     id="base"
     pagecolor="#808080"
     bordercolor="#666666"
     borderopacity="1.0"
     inkscape:pageopacity="0"
     inkscape:pageshadow="2"
     inkscape:zoom="5.6568542"
     inkscape:cx="30.670757"
     inkscape:cy="34.471456"
     inkscape:document-units="px"
     inkscape:current-layer="layer1"
     showgrid="true"
     showborder="true"
     inkscape:snap-bbox="true"
     inkscape:window-width="1920"
     inkscape:window-height="1052"
     inkscape:window-x="0"
     inkscape:window-y="0"
     inkscape:window-maximized="1"
     inkscape:snap-global="true"
     showguides="true"
     inkscape:guide-bbox="true"
     fit-margin-top="0"
     fit-margin-left="0"
     fit-margin-right="0"
     fit-margin-bottom="0"
     inkscape:bbox-paths="true"
     inkscape:snap-bbox-edge-midpoints="false"
     inkscape:snap-bbox-midpoints="false"
     inkscape:bbox-nodes="true"
     inkscape:snap-others="true"
     inkscape:snap-nodes="false"
     inkscape:snap-object-midpoints="false"
     units="px"
     inkscape:snap-page="true"
     inkscape:object-paths="false"
     inkscape:object-nodes="true"
     inkscape:snap-smooth-nodes="true"
     inkscape:snap-grids="true"
     inkscape:snap-center="false"
     inkscape:snap-to-guides="true"
     inkscape:document-rotation="0"
     inkscape:showpageshadow="2"
     inkscape:pagecheckerboard="0"
     inkscape:deskcolor="#808080">
    <inkscape:grid
       id="grid11941"
       type="xygrid"
       snapvisiblegridlinesonly="true"
       enabled="true"
       visible="true"
       empspacing="24"
       originx="-149.99994"
       originy="76.875037"
       color="#ff4e4e"
       opacity="0.662745"
       empcolor="#ffe63f"
       empopacity="0.8627451"
       spacingy="0.9375"
       spacingx="0.9375"
       units="px" />
    <sodipodi:guide
       position="-262.64034,222.66958"
       orientation="1,0"
       id="guide1126"
       inkscape:locked="false" />
    <sodipodi:guide
       position="-261.0174,233.98159"
       orientation="0.70710678,0.70710678"
       id="guide1137"
       inkscape:locked="false" />
    <sodipodi:guide
       position="-256.8188,223.31541"
       orientation="0.92560877,0.37848172"
       id="guide1139"
       inkscape:locked="false" />
    <sodipodi:guide
       position="-261.07955,233.98159"
       orientation="1,0"
       id="guide1141"
       inkscape:locked="false" />
    <sodipodi:guide
       position="-255.25925,223.97839"
       orientation="0.39127249,-0.92027487"
       id="guide1147"
       inkscape:locked="false" />
    <sodipodi:guide
       position="-255.2521,215.00679"
       orientation="-0.92560834,-0.37848275"
       id="guide1157"
       inkscape:locked="false" />
    <sodipodi:guide
       position="-255.25925,223.97839"
       orientation="0.92560574,0.37848912"
       id="guide1159"
       inkscape:locked="false" />
    <sodipodi:guide
       position="-212.04344,187.02259"
       orientation="1,0"
       id="guide1178"
       inkscape:locked="false" />
    <sodipodi:guide
       position="-209.99753,187.02989"
       orientation="1,0"
       id="guide1180"
       inkscape:locked="false" />
  </sodipodi:namedview>
  <defs
     id="defs11026">
    <foreignObject
       id="foreignObject5"
       requiredExtensions="http://ns.adobe.com/AdobeIllustrator/10.0/"
       height="1"
       width="1"
       y="0"
       x="0" />
  </defs>
  <metadata
     id="metadata11029">
    <rdf:RDF>
      <cc:Work
         rdf:about="">
        <dc:format>image/svg+xml</dc:format>
        <dc:type
           rdf:resource="http://purl.org/dc/dcmitype/StillImage" />
        <cc:license
           rdf:resource="https://en.wikipedia.org/wiki/MIT_License" />
      </cc:Work>
    </rdf:RDF>
  </metadata>
  <g
     style="display:inline;opacity:1"
     transform="translate(-175.13057,-1019.2056)"
     id="layer1"
     inkscape:groupmode="layer"
     inkscape:label="Cursors">
    <path
       style="color:#000000;clip-rule:nonzero;display:inline;overflow:visible;visibility:visible;opacity:0.22;isolation:auto;mix-blend-mode:normal;color-interpolation:sRGB;color-interpolation-filters:linearRGB;solid-color:#000000;solid-opacity:1;fill:#000000;fill-opacity:1;fill-rule:nonzero;stroke:none;stroke-width:0.9375;stroke-linecap:butt;stroke-linejoin:round;stroke-miterlimit:4;stroke-dasharray:none;stroke-dashoffset:0;stroke-opacity:1;color-rendering:auto;image-rendering:auto;shape-rendering:auto;text-rendering:auto;enable-background:accumulate"
       d="m 192.77603,1030.8282 v 2.2899 l -0.009,2.0774 c 0.18962,-1.8575 -0.49676,-4.1177 0.99548,-3.8821 0.60126,0.095 1.01871,2.6038 1.91493,3.4164 0.54809,1.5149 -1.9313,3.7509 -2.89235,4.1569 l 0.002,0.4972 c -0.44528,0.8227 -1.64301,1.3843 -2.64771,1.3843 h -5.03906 c -1.46074,0 -3.56894,-1.7912 -3.56894,-3.2519 v -2.5489 -2.9482 c 0,-1.0606 0.9802,-1.4258 1.41409,-1.4318 0.43387,-0.01 1.2873,0.451 1.38984,1.1517 l 0.004,0.5952 v -1.9646 c 0,-1.005 0.72606,-1.5214 1.40717,-1.5214 0.68111,0 1.41323,0.5335 1.40965,1.3999 l -0.005,1.2109 v -1.8291 c 0,-1.087 0.67322,-1.6518 1.39587,-1.6573 0.72264,-0.01 1.41099,0.4969 1.41295,1.6523 l 0.004,2.3633 v -1.1601 c 0,-0.906 0.61196,-1.467 1.40615,-1.4704 0.97714,0 1.40602,0.8985 1.40602,1.4704 z"
       id="path5"
       inkscape:connector-curvature="0"
       sodipodi:nodetypes="sccscccssscszccszscszscssss" />
    <path
       style="color:#000000;clip-rule:nonzero;display:inline;overflow:visible;visibility:visible;isolation:auto;mix-blend-mode:normal;color-interpolation:sRGB;color-interpolation-filters:linearRGB;solid-color:#000000;solid-opacity:1;fill:#000000;fill-opacity:1;fill-rule:nonzero;stroke:#ffffff;stroke-width:0.9375;stroke-linecap:butt;stroke-linejoin:round;stroke-miterlimit:4;stroke-dasharray:none;stroke-dashoffset:0;stroke-opacity:1;color-rendering:auto;image-rendering:auto;shape-rendering:auto;text-rendering:auto;enable-background:accumulate"
       d="m 190.59431,1028.6471 v 2.1242 l -0.009,1.083 0.009,-2.5092 0.9862,-0.3785 c 0.60811,0.027 1.01871,2.6038 1.91493,3.4164 0.54809,1.5149 -1.9313,3.7509 -2.89235,4.1569 l 0.002,0.4972 c -0.44528,0.8227 -1.64301,1.3843 -2.64771,1.3843 h -5.03906 c -1.46074,0 -3.56894,-1.7912 -3.56894,-3.2519 v -2.5489 -2.0056 c 0,-1.0813 0.71051,-1.547 1.41409,-1.5561 0.70358,-0.01 1.37016,0.6374 1.38984,1.276 l 0.004,-0.3474 v -1.281 c 0,-1.005 0.72606,-1.5214 1.40717,-1.5214 0.68111,0 1.41787,0.5336 1.40965,1.3999 l -0.005,0.5273 v -1.3112 c 0,-1.087 0.67322,-1.5586 1.39587,-1.5641 0.72264,-0.01 1.41098,0.6523 1.41295,1.5591 l 0.004,1.8454 v -0.9944 c 0,-0.906 0.67265,-1.4704 1.40615,-1.4704 0.7335,0 1.40593,0.6523 1.40593,1.4704 z"
       id="path4"
       inkscape:connector-curvature="0"
       sodipodi:nodetypes="scccccccssscszccszscszscszss" />
  </g>
  <g
     style="display:none;opacity:1"
     inkscape:groupmode="layer"
     inkscape:label="Web Slicer"
     id="webslicer-layer"
     transform="translate(-175.13057,-297.84341)"
     sodipodi:insensitive="true">
    <rect
       transform="translate(0,-721.36222)"
       style="display:inline;opacity:0.5;fill:#ccff00;stroke-width:0.703125"
       height="22.5"
       width="22.5"
       y="1019.2056"
       x="175.13057"
       id="closedhand">
      <desc
         id="desc24732">format: png
dpi: 90
layout-disposition: bg-el-norepeat
layout-position-anchor: tl</desc>
    </rect>
  </g>
  <style
     type="text/css"
     id="style3760">
#P1 {fill:url(#LO)}
rect {opacity:.40740739;fill:#000cff;width:.50507629;height:0}
</style>
  <style
     type="text/css"
     id="style3828">
#P1 {fill:url(#LO)}
rect {opacity:.40740739;fill:#000cff;width:.50507629;height:0}
</style>
</svg>
