<?xml version="1.0" encoding="UTF-8" standalone="no"?>
<svg
   width="24"
   height="24"
   id="svg11024"
   version="1.1"
   inkscape:version="1.4 (e7c3feb100, 2024-10-09)"
   sodipodi:docname="draft.svg"
   viewBox="0 0 22.5 22.5"
   xmlns:inkscape="http://www.inkscape.org/namespaces/inkscape"
   xmlns:sodipodi="http://sodipodi.sourceforge.net/DTD/sodipodi-0.dtd"
   xmlns="http://www.w3.org/2000/svg"
   xmlns:svg="http://www.w3.org/2000/svg"
   xmlns:rdf="http://www.w3.org/1999/02/22-rdf-syntax-ns#"
   xmlns:cc="http://creativecommons.org/ns#"
   xmlns:dc="http://purl.org/dc/elements/1.1/">
  <sodipodi:namedview
     id="base"
     pagecolor="#808080"
     bordercolor="#666666"
     borderopacity="1.0"
     inkscape:pageopacity="0"
     inkscape:pageshadow="2"
     inkscape:zoom="5.6568542"
     inkscape:cx="16.351844"
     inkscape:cy="47.552931"
     inkscape:document-units="px"
     inkscape:current-layer="layer1"
     showgrid="true"
     showborder="true"
     inkscape:snap-bbox="true"
     inkscape:window-width="1920"
     inkscape:window-height="1052"
     inkscape:window-x="0"
     inkscape:window-y="0"
     inkscape:window-maximized="1"
     inkscape:snap-global="true"
     showguides="true"
     inkscape:guide-bbox="true"
     fit-margin-top="0"
     fit-margin-left="0"
     fit-margin-right="0"
     fit-margin-bottom="0"
     inkscape:bbox-paths="true"
     inkscape:snap-bbox-edge-midpoints="false"
     inkscape:snap-bbox-midpoints="false"
     inkscape:bbox-nodes="true"
     inkscape:snap-others="true"
     inkscape:snap-nodes="false"
     inkscape:snap-object-midpoints="false"
     units="px"
     inkscape:snap-page="true"
     inkscape:object-paths="false"
     inkscape:object-nodes="true"
     inkscape:snap-smooth-nodes="true"
     inkscape:snap-grids="true"
     inkscape:snap-center="false"
     inkscape:snap-to-guides="true"
     inkscape:document-rotation="0"
     inkscape:showpageshadow="2"
     inkscape:pagecheckerboard="0"
     inkscape:deskcolor="#808080">
    <inkscape:grid
       id="grid11941"
       type="xygrid"
       snapvisiblegridlinesonly="true"
       enabled="true"
       visible="true"
       empspacing="24"
       originx="-300.00014"
       originy="115.31247"
       color="#ff4e4e"
       opacity="0.662745"
       empcolor="#ffe63f"
       empopacity="0.8627451"
       spacingy="0.9375"
       spacingx="0.9375"
       units="px" />
    <sodipodi:guide
       position="-412.64053,184.23215"
       orientation="1,0"
       id="guide1126"
       inkscape:locked="false" />
    <sodipodi:guide
       position="-411.0176,195.54416"
       orientation="0.70710678,0.70710678"
       id="guide1137"
       inkscape:locked="false" />
    <sodipodi:guide
       position="-406.819,184.87798"
       orientation="0.92560877,0.37848172"
       id="guide1139"
       inkscape:locked="false" />
    <sodipodi:guide
       position="-411.07975,195.54416"
       orientation="1,0"
       id="guide1141"
       inkscape:locked="false" />
    <sodipodi:guide
       position="-405.25945,185.54096"
       orientation="0.39127249,-0.92027487"
       id="guide1147"
       inkscape:locked="false" />
    <sodipodi:guide
       position="-405.2523,176.56936"
       orientation="-0.92560834,-0.37848275"
       id="guide1157"
       inkscape:locked="false" />
    <sodipodi:guide
       position="-405.25945,185.54096"
       orientation="0.92560574,0.37848912"
       id="guide1159"
       inkscape:locked="false" />
    <sodipodi:guide
       position="-362.04364,148.58516"
       orientation="1,0"
       id="guide1178"
       inkscape:locked="false" />
    <sodipodi:guide
       position="-359.99772,148.59246"
       orientation="1,0"
       id="guide1180"
       inkscape:locked="false" />
  </sodipodi:namedview>
  <defs
     id="defs11026">
    <foreignObject
       id="foreignObject5"
       requiredExtensions="http://ns.adobe.com/AdobeIllustrator/10.0/"
       height="1"
       width="1"
       y="0"
       x="0" />
  </defs>
  <metadata
     id="metadata11029">
    <rdf:RDF>
      <cc:Work
         rdf:about="">
        <dc:format>image/svg+xml</dc:format>
        <dc:type
           rdf:resource="http://purl.org/dc/dcmitype/StillImage" />
        <cc:license
           rdf:resource="https://en.wikipedia.org/wiki/MIT_License" />
      </cc:Work>
    </rdf:RDF>
  </metadata>
  <g
     style="display:inline;opacity:1"
     transform="translate(-325.13077,-980.76816)"
     id="layer1"
     inkscape:groupmode="layer"
     inkscape:label="Cursors">
    <g
       transform="matrix(-0.95709572,0,0,0.95919581,651.63771,105.67053)"
       id="g1374"
       style="display:inline;opacity:1;stroke-width:1.04368">
      <path
         d="m 334.77734,912.38086 c -0.73877,0.0968 -1.14837,0.41277 -1.48828,0.62891 -0.27147,0.17262 -0.43204,0.2602 -0.55859,0.32421 l -0.58985,0.004 a 1.4262898,1.4262898 0 0 0 -0.53906,0.10938 c -2.60882,1.0888 -4.73332,3.13318 -5.79883,4.42382 a 1.4262898,1.4262898 0 0 0 -0.13086,0.36524 l 0.25196,-0.002 a 1.4262898,1.4262898 0 0 0 -0.30274,0.13868 1.4262898,1.4262898 0 0 0 -0.14453,0.40039 l 0.002,-0.33399 a 1.4262898,1.4262898 0 0 0 -0.625,0.28516 c -0.83248,0.95874 -1.70547,2.13959 -2.29883,3.03711 a 1.4262898,1.4262898 0 0 0 -0.0117,0.0176 l -0.0312,0.0488 c -0.3015,0.45882 -0.57053,0.89753 -0.80664,1.30665 a 1.4262898,1.4262898 0 0 0 -0.0137,0.0254 c -0.61016,1.06024 -0.96005,1.70952 -1.14454,2.43945 -0.13522,0.53569 -0.2178,1.51139 -0.10546,2.5918 -0.90467,1.65248 -2.33577,3.34337 -2.83204,5.84375 a 1.4262898,1.4262898 0 0 0 2.67579,0.91406 c 0.6748,-1.3545 1.75833,-2.88835 2.70117,-4.5586 1.30379,-0.18191 2.42476,-0.87315 3.41797,-1.8125 a 1.4262898,1.4262898 0 0 0 0.008,-0.01 l 0.25586,-0.24609 a 1.4262898,1.4262898 0 0 0 0.0176,-0.0176 c 1.19693,-1.19208 2.48426,-3.02521 3.59179,-4.4336 1.17793,-1.49837 1.27323,-1.77202 2.54688,-3.13672 a 1.4262898,1.4262898 0 0 0 0.31836,-0.80859 1.4262898,1.4262898 0 0 0 0.56054,-0.22656 c 1.64687,-1.64182 3.26994,-2.8722 4.80665,-3.4668 l 0.74218,-0.28711 a 1.4262898,1.4262898 0 0 0 0.23047,-2.54687 c -2.04383,-1.24941 -4.0105,-1.10858 -4.70508,-1.01758 z m -14.36718,15.89453 c -4.2e-4,0.13124 0.0143,0.0794 0.0215,0.1543 0.005,0.0319 -0.009,0.042 -0.004,0.0742 z"
         id="path1150"
         style="opacity:0.2;fill:#000000;stroke:none;stroke-width:1.09612;stroke-linecap:round;stroke-linejoin:round;stroke-miterlimit:4;stroke-dasharray:none"
         inkscape:original="M 334.96289 913.79492 C 334.38431 913.87072 333.74665 914.51547 333.07227 914.75781 L 332.15039 914.76367 C 329.90765 915.69969 327.81753 917.67073 326.90234 918.7793 L 326.89844 919.65625 L 325.92969 919.66016 C 325.15679 920.55029 324.29768 921.71155 323.74414 922.54883 L 323.71289 922.59766 C 323.422 923.03975 323.16316 923.46003 322.93945 923.84766 L 322.92773 923.87109 C 322.35249 924.87066 322.00795 925.63958 321.92969 925.94922 C 321.83679 926.31725 321.68267 927.31855 321.83594 928.2793 C 321.83573 928.3459 321.86521 928.47145 321.88281 928.55273 C 320.88894 930.50589 319.43917 932.13913 319.00781 934.3125 C 319.87061 932.58065 321.16749 930.90743 322.10742 929.08203 L 322.17578 929.08984 C 322.26978 929.10144 322.36544 929.10742 322.46094 929.10742 C 323.42936 929.10742 324.40561 928.50402 325.42383 927.54102 L 325.67969 927.29492 C 326.70198 926.27678 328.0161 924.44009 329.15625 922.99023 C 330.30419 921.53001 330.46501 921.17205 331.78125 919.76172 L 331.7832 918.67773 L 332.69531 918.68945 C 334.41736 916.97268 336.16984 915.60897 337.99609 914.90234 L 338.73828 914.61523 C 337.07332 913.59743 335.52785 913.7209 334.96289 913.79492 z "
         inkscape:radius="1.4261472"
         sodipodi:type="inkscape:offset"
         transform="matrix(0.91089604,0,0,0.87478009,31.289499,117.17331)" />
      <path
         sodipodi:type="inkscape:offset"
         inkscape:radius="1.4261472"
         inkscape:original="M 334.96289 913.79492 C 334.38431 913.87072 333.74665 914.51547 333.07227 914.75781 L 332.15039 914.76367 C 329.90765 915.69969 327.81753 917.67073 326.90234 918.7793 L 326.89844 919.65625 L 325.92969 919.66016 C 325.15679 920.55029 324.29768 921.71155 323.74414 922.54883 L 323.71289 922.59766 C 323.422 923.03975 323.16316 923.46003 322.93945 923.84766 L 322.92773 923.87109 C 322.35249 924.87066 322.00795 925.63958 321.92969 925.94922 C 321.83679 926.31725 321.68267 927.31855 321.83594 928.2793 C 321.83573 928.3459 321.86521 928.47145 321.88281 928.55273 C 320.88894 930.50589 319.43917 932.13913 319.00781 934.3125 C 319.87061 932.58065 321.16749 930.90743 322.10742 929.08203 L 322.17578 929.08984 C 322.26978 929.10144 322.36544 929.10742 322.46094 929.10742 C 323.42936 929.10742 324.40561 928.50402 325.42383 927.54102 L 325.67969 927.29492 C 326.70198 926.27678 328.0161 924.44009 329.15625 922.99023 C 330.30419 921.53001 330.46501 921.17205 331.78125 919.76172 L 331.7832 918.67773 L 332.69531 918.68945 C 334.41736 916.97268 336.16984 915.60897 337.99609 914.90234 L 338.73828 914.61523 C 337.07332 913.59743 335.52785 913.7209 334.96289 913.79492 z "
         style="opacity:1;fill:#ffffff;stroke:none;stroke-width:0.978453;stroke-linecap:round;stroke-linejoin:round;stroke-miterlimit:4;stroke-dasharray:none"
         id="path1130"
         d="m 334.77734,912.38086 c -0.73877,0.0968 -1.14837,0.41277 -1.48828,0.62891 -0.27147,0.17262 -0.43204,0.2602 -0.55859,0.32421 l -0.58985,0.004 a 1.4262898,1.4262898 0 0 0 -0.53906,0.10938 c -2.60882,1.0888 -4.73332,3.13318 -5.79883,4.42382 a 1.4262898,1.4262898 0 0 0 -0.13086,0.36524 l 0.25196,-0.002 a 1.4262898,1.4262898 0 0 0 -0.30274,0.13868 1.4262898,1.4262898 0 0 0 -0.14453,0.40039 l 0.002,-0.33399 a 1.4262898,1.4262898 0 0 0 -0.625,0.28516 c -0.83248,0.95874 -1.70547,2.13959 -2.29883,3.03711 a 1.4262898,1.4262898 0 0 0 -0.0117,0.0176 l -0.0312,0.0488 c -0.3015,0.45882 -0.57053,0.89753 -0.80664,1.30665 a 1.4262898,1.4262898 0 0 0 -0.0137,0.0254 c -0.61016,1.06024 -0.96005,1.70952 -1.14454,2.43945 -0.13522,0.53569 -0.2178,1.51139 -0.10546,2.5918 -0.90467,1.65248 -2.33577,3.34337 -2.83204,5.84375 a 1.4262898,1.4262898 0 0 0 2.67579,0.91406 c 0.6748,-1.3545 1.75833,-2.88835 2.70117,-4.5586 1.30379,-0.18191 2.42476,-0.87315 3.41797,-1.8125 a 1.4262898,1.4262898 0 0 0 0.008,-0.01 l 0.25586,-0.24609 a 1.4262898,1.4262898 0 0 0 0.0176,-0.0176 c 1.19693,-1.19208 2.48426,-3.02521 3.59179,-4.4336 1.17793,-1.49837 1.27323,-1.77202 2.54688,-3.13672 a 1.4262898,1.4262898 0 0 0 0.31836,-0.80859 1.4262898,1.4262898 0 0 0 0.56054,-0.22656 c 1.64687,-1.64182 3.26994,-2.8722 4.80665,-3.4668 l 0.74218,-0.28711 a 1.4262898,1.4262898 0 0 0 0.23047,-2.54687 c -2.04383,-1.24941 -4.0105,-1.10858 -4.70508,-1.01758 z m -14.36718,15.89453 c -4.2e-4,0.13124 0.0143,0.0794 0.0215,0.1543 0.005,0.0319 -0.009,0.042 -0.004,0.0742 z" />
      <path
         style="opacity:1;fill:#ffffff;stroke:#000000;stroke-width:0.978453;stroke-linecap:round;stroke-linejoin:round;stroke-miterlimit:4;stroke-dasharray:none"
         d="m 326.90185,918.77947 -0.003,0.87671 -0.96861,0.003 c -0.7729,0.89013 -1.63166,2.05229 -2.1852,2.88957 l -0.032,0.0486 c -0.29089,0.44209 -0.54901,0.86338 -0.77272,1.25101 l -0.0128,0.0218 c -0.57524,0.99957 -0.91894,1.77035 -0.9972,2.07999 -0.0929,0.36803 -0.24767,1.36865 -0.0944,2.3294 -2.1e-4,0.0666 0.0301,0.19198 0.0477,0.27326 -0.99387,1.95316 -2.44513,3.58658 -2.87649,5.75995 0.8628,-1.73185 2.16052,-3.40556 3.10045,-5.23096 l 0.0676,0.008 c 0.094,0.0116 0.18992,0.0176 0.28542,0.0176 0.96842,0 1.94593,-0.60355 2.96415,-1.56655 l 0.25496,-0.24505 c 1.02229,-1.01814 2.33681,-2.85548 3.47696,-4.30534 1.14794,-1.46022 1.30883,-1.81917 2.62507,-3.2295 l 0.002,-1.08295 0.91127,0.0106 c 1.72205,-1.71677 3.47414,-3.07903 5.30039,-3.78566 l 0.74275,-0.28736 c -1.66496,-1.0178 -3.21063,-0.89401 -3.77559,-0.81999 -0.57858,0.0758 -1.21627,0.71948 -1.89065,0.96182 l -0.92089,0.006 c -2.24274,0.93602 -4.33439,2.90783 -5.24958,4.0164 z"
         id="path1346"
         inkscape:connector-curvature="0"
         sodipodi:nodetypes="cccccccccccccsccccccccscccc" />
      <path
         style="opacity:1;vector-effect:none;fill:none;fill-opacity:1;fill-rule:evenodd;stroke:#000000;stroke-width:0.587072;stroke-linecap:butt;stroke-linejoin:miter;stroke-miterlimit:4;stroke-dasharray:none;stroke-dashoffset:0;stroke-opacity:1"
         d="m 321.87012,928.98718 c 4.51069,-7.11137 9.83655,-13.98383 16.86767,-14.33349"
         id="path1348"
         inkscape:connector-curvature="0"
         sodipodi:nodetypes="cc" />
      <path
         inkscape:connector-curvature="0"
         id="path1372"
         style="opacity:1;vector-effect:none;fill:none;fill-opacity:1;fill-rule:evenodd;stroke:#000000;stroke-width:0.978453;stroke-linecap:round;stroke-linejoin:round;stroke-miterlimit:4;stroke-dasharray:none;stroke-dashoffset:0;stroke-opacity:1"
         d="m 329.81827,920.6427 -0.0147,1.17592 m -5.83816,1.75205 -0.85813,5.8e-4 m 2.79046,-1.95926 -1.42487,-0.007 m 4.39041,-0.005 1.176,0.0147 m -2.1791,-2.92709 -0.84734,-0.0147 m 3.68541,-1.95088 -1.48415,-0.0147 m -2.35803,8.82996 -0.92743,-0.0147 m -2.97045,-0.97485 0.0147,-0.69846 m 5.73972,-0.26337 -1.53809,-0.0147 m 1.65552,-5.91719 0.0147,-0.62846 m 4.8936,-2.25132 -1.66005,-0.0147 m -6.66749,12.72913 -1.27899,-0.0147"
         sodipodi:nodetypes="cccccccccccccccccccccccc" />
    </g>
  </g>
  <g
     style="display:none;opacity:1"
     inkscape:groupmode="layer"
     inkscape:label="Web Slicer"
     id="webslicer-layer"
     transform="translate(-325.13077,-259.40598)"
     sodipodi:insensitive="true">
    <rect
       height="22.5"
       width="22.5"
       y="259.40598"
       x="325.13077"
       id="draft"
       style="opacity:0.5;fill:#ccff00;stroke-width:0.703125">
      <desc
         id="desc37824">format: png
dpi: 90
layout-disposition: bg-el-norepeat
layout-position-anchor: tl</desc>
    </rect>
  </g>
  <style
     type="text/css"
     id="style3760">
#P1 {fill:url(#LO)}
rect {opacity:.40740739;fill:#000cff;width:.50507629;height:0}
</style>
  <style
     type="text/css"
     id="style3828">
#P1 {fill:url(#LO)}
rect {opacity:.40740739;fill:#000cff;width:.50507629;height:0}
</style>
</svg>
