<?xml version="1.0" encoding="UTF-8" standalone="no"?>
<svg
   width="24"
   height="24"
   id="svg11024"
   version="1.1"
   inkscape:version="1.4 (e7c3feb100, 2024-10-09)"
   sodipodi:docname="openhand.svg"
   viewBox="0 0 22.5 22.5"
   xmlns:inkscape="http://www.inkscape.org/namespaces/inkscape"
   xmlns:sodipodi="http://sodipodi.sourceforge.net/DTD/sodipodi-0.dtd"
   xmlns="http://www.w3.org/2000/svg"
   xmlns:svg="http://www.w3.org/2000/svg"
   xmlns:rdf="http://www.w3.org/1999/02/22-rdf-syntax-ns#"
   xmlns:cc="http://creativecommons.org/ns#"
   xmlns:dc="http://purl.org/dc/elements/1.1/">
  <sodipodi:namedview
     id="base"
     pagecolor="#808080"
     bordercolor="#666666"
     borderopacity="1.0"
     inkscape:pageopacity="0"
     inkscape:pageshadow="2"
     inkscape:zoom="8"
     inkscape:cx="13.4375"
     inkscape:cy="30.375"
     inkscape:document-units="px"
     inkscape:current-layer="layer1"
     showgrid="true"
     showborder="true"
     inkscape:snap-bbox="true"
     inkscape:window-width="1920"
     inkscape:window-height="1052"
     inkscape:window-x="0"
     inkscape:window-y="0"
     inkscape:window-maximized="1"
     inkscape:snap-global="true"
     showguides="true"
     inkscape:guide-bbox="true"
     fit-margin-top="0"
     fit-margin-left="0"
     fit-margin-right="0"
     fit-margin-bottom="0"
     inkscape:bbox-paths="true"
     inkscape:snap-bbox-edge-midpoints="false"
     inkscape:snap-bbox-midpoints="false"
     inkscape:bbox-nodes="true"
     inkscape:snap-others="true"
     inkscape:snap-nodes="false"
     inkscape:snap-object-midpoints="false"
     units="px"
     inkscape:snap-page="true"
     inkscape:object-paths="false"
     inkscape:object-nodes="true"
     inkscape:snap-smooth-nodes="true"
     inkscape:snap-grids="true"
     inkscape:snap-center="false"
     inkscape:snap-to-guides="true"
     inkscape:document-rotation="0"
     inkscape:showpageshadow="2"
     inkscape:pagecheckerboard="0"
     inkscape:deskcolor="#808080">
    <inkscape:grid
       id="grid11941"
       type="xygrid"
       snapvisiblegridlinesonly="true"
       enabled="true"
       visible="true"
       empspacing="24"
       originx="-112.49994"
       originy="76.875037"
       color="#ff4e4e"
       opacity="0.662745"
       empcolor="#ffe63f"
       empopacity="0.8627451"
       spacingy="0.9375"
       spacingx="0.9375"
       units="px" />
    <sodipodi:guide
       position="-225.14034,222.66958"
       orientation="1,0"
       id="guide1126"
       inkscape:locked="false" />
    <sodipodi:guide
       position="-223.5174,233.98159"
       orientation="0.70710678,0.70710678"
       id="guide1137"
       inkscape:locked="false" />
    <sodipodi:guide
       position="-219.3188,223.31541"
       orientation="0.92560877,0.37848172"
       id="guide1139"
       inkscape:locked="false" />
    <sodipodi:guide
       position="-223.57955,233.98159"
       orientation="1,0"
       id="guide1141"
       inkscape:locked="false" />
    <sodipodi:guide
       position="-217.75925,223.97839"
       orientation="0.39127249,-0.92027487"
       id="guide1147"
       inkscape:locked="false" />
    <sodipodi:guide
       position="-217.7521,215.00679"
       orientation="-0.92560834,-0.37848275"
       id="guide1157"
       inkscape:locked="false" />
    <sodipodi:guide
       position="-217.75925,223.97839"
       orientation="0.92560574,0.37848912"
       id="guide1159"
       inkscape:locked="false" />
    <sodipodi:guide
       position="-174.54344,187.02259"
       orientation="1,0"
       id="guide1178"
       inkscape:locked="false" />
    <sodipodi:guide
       position="-172.49753,187.02989"
       orientation="1,0"
       id="guide1180"
       inkscape:locked="false" />
  </sodipodi:namedview>
  <defs
     id="defs11026">
    <foreignObject
       id="foreignObject5"
       requiredExtensions="http://ns.adobe.com/AdobeIllustrator/10.0/"
       height="1"
       width="1"
       y="0"
       x="0" />
  </defs>
  <metadata
     id="metadata11029">
    <rdf:RDF>
      <cc:Work
         rdf:about="">
        <dc:format>image/svg+xml</dc:format>
        <dc:type
           rdf:resource="http://purl.org/dc/dcmitype/StillImage" />
        <cc:license
           rdf:resource="https://en.wikipedia.org/wiki/MIT_License" />
      </cc:Work>
    </rdf:RDF>
  </metadata>
  <g
     style="display:inline;opacity:1"
     transform="translate(-137.63057,-1019.2056)"
     id="layer1"
     inkscape:groupmode="layer"
     inkscape:label="Cursors">
    <path
       style="color:#000000;clip-rule:nonzero;display:inline;overflow:visible;visibility:visible;opacity:0.22;isolation:auto;mix-blend-mode:normal;color-interpolation:sRGB;color-interpolation-filters:linearRGB;solid-color:#000000;solid-opacity:1;fill:#000000;fill-opacity:1;fill-rule:nonzero;stroke:none;stroke-width:0.9375;stroke-linecap:butt;stroke-linejoin:round;stroke-miterlimit:4;stroke-dasharray:none;stroke-dashoffset:0;stroke-opacity:1;color-rendering:auto;image-rendering:auto;shape-rendering:auto;text-rendering:auto;enable-background:accumulate"
       d="m 154.50037,1026.3165 v 6.8016 l 0.0171,1.0763 c 0.34478,0.08 0.68958,-0.069 1.03436,-0.5744 0.0632,-1.3322 2.80349,-3.0565 3.5956,-1.7701 0.31918,0.5183 -1.31432,2.4678 -1.34823,3.6771 -0.79368,1.4019 -2.32881,2.9537 -3.28986,3.3597 l 0.002,0.4972 c -0.44528,0.8227 -1.64301,1.3843 -2.64771,1.3843 h -5.03906 c -1.46074,0 -3.56894,-1.7912 -3.56894,-3.2519 v -2.5489 -6.6982 c 0,-1.0606 0.9802,-1.4258 1.41409,-1.4318 0.43387,-0.01 1.2873,0.451 1.38984,1.1517 l 0.004,4.3452 v -5.7146 c 0,-1.005 0.72606,-1.5214 1.40717,-1.5214 0.68111,0 1.41033,0.5335 1.40965,1.3999 l -0.005,4.9609 v -5.9014 c 0,-1.087 0.67322,-1.6518 1.39587,-1.6573 0.72264,-0.01 1.41223,0.4969 1.41295,1.6523 l 0.004,6.4356 v -5.6718 c 0,-0.906 0.61196,-1.467 1.40615,-1.4704 0.97714,0 1.40602,0.8985 1.40602,1.4704 z"
       id="path3"
       inkscape:connector-curvature="0"
       sodipodi:nodetypes="scccscccssscszccszscszscsss" />
    <path
       style="color:#000000;clip-rule:nonzero;display:inline;overflow:visible;visibility:visible;isolation:auto;mix-blend-mode:normal;color-interpolation:sRGB;color-interpolation-filters:linearRGB;solid-color:#000000;solid-opacity:1;fill:#000000;fill-opacity:1;fill-rule:nonzero;stroke:#ffffff;stroke-width:0.9375;stroke-linecap:butt;stroke-linejoin:round;stroke-miterlimit:4;stroke-dasharray:none;stroke-dashoffset:0;stroke-opacity:1;color-rendering:auto;image-rendering:auto;shape-rendering:auto;text-rendering:auto;enable-background:accumulate"
       d="m 153.09785,1023.9727 v 6.8016 l 0.0171,1.0763 c 0.34478,0.08 0.68958,-0.069 1.03436,-0.5744 0.0632,-1.3322 2.80349,-3.0565 3.5956,-1.7701 0.31918,0.5183 -1.31432,2.4678 -1.34823,3.6771 -0.79368,1.4019 -2.32881,2.9537 -3.28986,3.3597 l 0.002,0.4972 c -0.44528,0.8227 -1.64301,1.3843 -2.64771,1.3843 h -5.03906 c -1.46074,0 -3.56894,-1.7912 -3.56894,-3.2519 v -2.5489 -5.8903 c 0,-1.0088 0.93875,-1.4111 1.41409,-1.4111 0.47534,0 1.38856,0.34 1.38984,1.39 l 0.004,3.2783 v -5.9632 c 0,-1.005 0.72606,-1.5214 1.40717,-1.5214 0.68111,0 1.41048,0.5335 1.40965,1.3999 l -0.005,5.2095 v -5.9014 c 0,-1.087 0.67322,-1.6518 1.39587,-1.6573 0.72264,-0.01 1.41223,0.4969 1.41295,1.6523 l 0.004,6.4356 v -5.6718 c 0,-0.906 0.61196,-1.467 1.40615,-1.4704 0.97714,0 1.40602,0.8985 1.40602,1.4704 z"
       id="path2"
       inkscape:connector-curvature="0"
       sodipodi:nodetypes="scccscccssscszscszscszscsss" />
  </g>
  <g
     style="display:none;opacity:1"
     inkscape:groupmode="layer"
     inkscape:label="Web Slicer"
     id="webslicer-layer"
     transform="translate(-137.63057,-297.84341)"
     sodipodi:insensitive="true">
    <rect
       transform="translate(0,-721.36222)"
       style="display:inline;opacity:0.5;fill:#ccff00;stroke-width:0.703125"
       id="openhand"
       x="137.63057"
       y="1019.2056"
       width="22.5"
       height="22.5">
      <desc
         id="desc23667">format: png
dpi: 90
layout-disposition: bg-el-norepeat
layout-position-anchor: tl</desc>
    </rect>
  </g>
  <style
     type="text/css"
     id="style3760">
#P1 {fill:url(#LO)}
rect {opacity:.40740739;fill:#000cff;width:.50507629;height:0}
</style>
  <style
     type="text/css"
     id="style3828">
#P1 {fill:url(#LO)}
rect {opacity:.40740739;fill:#000cff;width:.50507629;height:0}
</style>
</svg>
