<?xml version="1.0" encoding="UTF-8" standalone="no"?>
<svg
   width="24"
   height="24"
   id="svg11024"
   version="1.1"
   inkscape:version="1.4 (e7c3feb100, 2024-10-09)"
   sodipodi:docname="progress-11.svg"
   viewBox="0 0 22.5 22.5"
   xmlns:inkscape="http://www.inkscape.org/namespaces/inkscape"
   xmlns:sodipodi="http://sodipodi.sourceforge.net/DTD/sodipodi-0.dtd"
   xmlns="http://www.w3.org/2000/svg"
   xmlns:svg="http://www.w3.org/2000/svg"
   xmlns:rdf="http://www.w3.org/1999/02/22-rdf-syntax-ns#"
   xmlns:cc="http://creativecommons.org/ns#"
   xmlns:dc="http://purl.org/dc/elements/1.1/">
  <sodipodi:namedview
     id="base"
     pagecolor="#808080"
     bordercolor="#666666"
     borderopacity="1.0"
     inkscape:pageopacity="0"
     inkscape:pageshadow="2"
     inkscape:zoom="22.627417"
     inkscape:cx="17.346213"
     inkscape:cy="17.014757"
     inkscape:document-units="px"
     inkscape:current-layer="layer1"
     showgrid="true"
     showborder="true"
     inkscape:snap-bbox="true"
     inkscape:window-width="1920"
     inkscape:window-height="1052"
     inkscape:window-x="0"
     inkscape:window-y="0"
     inkscape:window-maximized="1"
     inkscape:snap-global="true"
     showguides="true"
     inkscape:guide-bbox="true"
     fit-margin-top="0"
     fit-margin-left="0"
     fit-margin-right="0"
     fit-margin-bottom="0"
     inkscape:bbox-paths="true"
     inkscape:snap-bbox-edge-midpoints="false"
     inkscape:snap-bbox-midpoints="false"
     inkscape:bbox-nodes="true"
     inkscape:snap-others="true"
     inkscape:snap-nodes="false"
     inkscape:snap-object-midpoints="false"
     units="px"
     inkscape:snap-page="true"
     inkscape:object-paths="false"
     inkscape:object-nodes="true"
     inkscape:snap-smooth-nodes="true"
     inkscape:snap-grids="true"
     inkscape:snap-center="false"
     inkscape:snap-to-guides="true"
     inkscape:document-rotation="0"
     inkscape:showpageshadow="2"
     inkscape:pagecheckerboard="0"
     inkscape:deskcolor="#808080">
    <inkscape:grid
       id="grid11941"
       type="xygrid"
       snapvisiblegridlinesonly="true"
       enabled="true"
       visible="true"
       empspacing="24"
       originx="-9.5367432e-05"
       originy="1.8749695"
       color="#ff4e4e"
       opacity="0.662745"
       empcolor="#ffe63f"
       empopacity="0.8627451"
       spacingy="0.9375"
       spacingx="0.9375"
       units="px" />
    <sodipodi:guide
       position="-112.64049,297.66965"
       orientation="1,0"
       id="guide1126"
       inkscape:locked="false" />
    <sodipodi:guide
       position="-111.01755,308.98166"
       orientation="0.70710678,0.70710678"
       id="guide1137"
       inkscape:locked="false" />
    <sodipodi:guide
       position="-106.81895,298.31548"
       orientation="0.92560877,0.37848172"
       id="guide1139"
       inkscape:locked="false" />
    <sodipodi:guide
       position="-111.0797,308.98166"
       orientation="1,0"
       id="guide1141"
       inkscape:locked="false" />
    <sodipodi:guide
       position="-105.2594,298.97846"
       orientation="0.39127249,-0.92027487"
       id="guide1147"
       inkscape:locked="false" />
    <sodipodi:guide
       position="-105.25225,290.00686"
       orientation="-0.92560834,-0.37848275"
       id="guide1157"
       inkscape:locked="false" />
    <sodipodi:guide
       position="-105.2594,298.97846"
       orientation="0.92560574,0.37848912"
       id="guide1159"
       inkscape:locked="false" />
    <sodipodi:guide
       position="-62.04359,262.02266"
       orientation="1,0"
       id="guide1178"
       inkscape:locked="false" />
    <sodipodi:guide
       position="-59.997676,262.02996"
       orientation="1,0"
       id="guide1180"
       inkscape:locked="false" />
  </sodipodi:namedview>
  <defs
     id="defs11026">
    <foreignObject
       id="foreignObject5"
       requiredExtensions="http://ns.adobe.com/AdobeIllustrator/10.0/"
       height="1"
       width="1"
       y="0"
       x="0" />
  </defs>
  <metadata
     id="metadata11029">
    <rdf:RDF>
      <cc:Work
         rdf:about="">
        <dc:format>image/svg+xml</dc:format>
        <dc:type
           rdf:resource="http://purl.org/dc/dcmitype/StillImage" />
        <cc:license
           rdf:resource="https://en.wikipedia.org/wiki/MIT_License" />
      </cc:Work>
    </rdf:RDF>
  </metadata>
  <g
     style="display:inline;opacity:1"
     transform="translate(-25.13072,-1094.2057)"
     id="layer1"
     inkscape:groupmode="layer"
     inkscape:label="Cursors">
    <path
       id="path6"
       style="opacity:0.2;stroke-linecap:round;stroke-linejoin:round;paint-order:fill markers stroke"
       d="M 47.066755 1097.0274 A 0.46879738 0.46879738 0 0 0 46.826887 1097.1555 L 43.195906 1100.7865 C 42.680113 1100.8666 42.261201 1101.2253 42.09178 1101.7057 L 40.526228 1101.7057 C 39.408309 1101.7058 38.467045 1102.2427 37.772322 1102.8831 C 37.187993 1103.4216 36.863119 1104.0038 36.620588 1104.5255 L 36.232405 1104.5255 C 36.012232 1104.0201 35.737626 1103.4295 35.177717 1102.8812 C 34.514632 1102.2323 33.547364 1101.7058 32.28282 1101.7057 L 30.671491 1101.7057 C 30.478634 1101.1595 29.965135 1100.7682 29.351301 1100.7682 C 28.572396 1100.7681 27.945024 1101.3954 27.945051 1102.1744 L 27.945051 1109.6744 C 27.945134 1110.4534 28.572418 1111.0807 29.351301 1111.0807 C 29.96478 1111.0806 30.478345 1110.6887 30.671491 1110.1432 L 32.280989 1110.1432 C 33.545376 1110.1432 34.512889 1109.615 35.175886 1108.9658 C 35.736038 1108.417 36.010021 1107.8269 36.230574 1107.3215 L 36.618757 1107.3215 C 36.622858 1107.3304 36.627426 1107.3402 36.631574 1107.349 L 36.073103 1107.9075 A 0.46879738 0.46879738 0 0 0 36.474104 1108.704 L 37.3878 1108.5648 C 37.501748 1108.6994 37.628311 1108.833 37.770491 1108.964 C 38.304806 1109.457 38.986256 1109.8876 39.780989 1110.0608 L 38.599958 1112.9447 A 0.46879738 0.46879738 0 0 0 38.634748 1113.3695 C 39.063825 1114.0705 39.472351 1114.5813 40.066633 1114.8508 C 40.660916 1115.1202 41.34501 1115.103 42.234602 1114.9314 A 0.46879738 0.46879738 0 0 0 42.57884 1114.6476 L 44.113264 1110.8939 C 44.414419 1110.7216 44.644495 1110.4431 44.752302 1110.1066 L 46.771955 1113.148 A 0.46879738 0.46879738 0 0 0 47.63072 1112.888 L 47.627058 1097.4869 A 0.46879738 0.46879738 0 0 0 47.337751 1097.0548 A 0.46879738 0.46879738 0 0 0 47.066755 1097.0274 z " />
    <path
       sodipodi:nodetypes="cccccccc"
       inkscape:transform-center-y="8.0207106"
       inkscape:transform-center-x="-5.434279"
       inkscape:connector-curvature="0"
       id="path10"
       d="m 46.220574,1095.6118 0.0038,15.4017 -2.705008,-4.0724 -2.312032,5.6543 c -1.70258,0.3282 -2.286267,0 -3.110696,-1.3468 l 2.30364,-5.6338 -4.933312,0.7504 z"
       style="display:inline;fill:#000000;stroke:#ffffff;stroke-width:0.937501;stroke-linecap:round;stroke-linejoin:round;stroke-miterlimit:4;stroke-dasharray:none;paint-order:fill markers stroke" />
    <g
       transform="rotate(90,94.589777,1014.5689)"
       style="display:inline"
       id="use2270">
      <g
         id="g5"
         transform="translate(187.5)">
        <path
           sodipodi:nodetypes="ccccccccccccccccccccccccc"
           inkscape:connector-curvature="0"
           id="path1"
           d="m -7.5605504,345.02731 8.23242158,-0.14648 0.73144792,0.45819 0.058013,0.97587 -0.65497236,0.5597 -0.0908759,2.33709 c -0.84603204,1.25294 -1.57036684,2.74927 -2.83274444,3.16951 l -0.1334634,0.85457 c 1.2608965,0.1704 2.20149707,1.30168 3.02262711,2.79137 l 0.0669938,2.85178 0.74371319,0.48317 0.013375,1.06755 -0.77762913,0.3301 -8.67187457,0.0293 -0.5257284,-0.2714 -0.047547,-1.1996 0.6087789,-0.32239 0.057135,-2.88607 c 0.5630629,-1.29491 1.1055462,-2.60612 2.9606418,-2.87817 l 0.042815,-0.90445 c -1.7946939,-0.65365 -2.4583361,-1.89544 -2.8860815,-3.2599 l -0.1449978,-2.28348 -0.5861632,-0.41214 -0.041573,-1.05807 z"
           style="display:inline;opacity:1;fill:#000000;stroke-width:0.703125"
           transform="translate(0,721.36218)">
          <desc
             id="desc1">format: png
dpi: 90
layout-disposition: bg-el-norepeat
layout-position-anchor: tl</desc>
        </path>
        <path
           style="fill:none;stroke:#ffffff;stroke-width:0.9375;stroke-linejoin:round;stroke-miterlimit:4;stroke-dasharray:none"
           d="m -7.6479926,1068.0607 1.901e-4,1.9795 c 1.858e-4,1.9342 1.8680262,3.3385 2.8193633,3.681 v 0.8586 c -0.980331,0.3716 -2.8191476,1.4269 -2.8193636,3.7036 l -1.92e-4,2.0234"
           id="path2"
           inkscape:connector-curvature="0"
           sodipodi:nodetypes="csccsc" />
        <path
           sodipodi:nodetypes="csccsc"
           inkscape:connector-curvature="0"
           id="path3"
           d="m 0.78739308,1068.1486 -1.8168e-4,1.8915 c -1.858e-4,1.9342 -1.8680262,3.3385 -2.8193633,3.681 v 0.8586 c 0.980331,0.3716 2.8191476,1.4269 2.8193636,3.7036 l 1.8921e-4,1.9942"
           style="fill:none;stroke:#ffffff;stroke-width:0.9375;stroke-linejoin:round;stroke-miterlimit:4;stroke-dasharray:none" />
        <rect
           style="opacity:1;fill:#ff0066;stroke-width:0.9375;stroke-linecap:round;stroke-linejoin:round"
           id="rect3"
           width="9.9851208"
           height="1.7401456"
           x="-8.4792471"
           y="1066.1936"
           ry="0.76649266" />
        <path
           id="path4"
           d="m -7.5223788,1065.745 c -0.849747,0 -1.533837,0.6272 -1.533837,1.4062 0,0.7791 0.68409,1.4063 1.533837,1.4063 h 8.1804664 c 0.8497474,0 1.5338374,-0.6272 1.5338374,-1.4063 0,-0.779 -0.68409,-1.4062 -1.5338374,-1.4062 z m -0.293767,0.9375 h 8.7826495 c 0.1630699,0 0.293586,0.1196 0.293586,0.2691 v 0.3992 c 0,0.1495 -0.1305161,0.2692 -0.293586,0.2692 h -8.7826495 c -0.16307,0 -0.293586,-0.1197 -0.293586,-0.2692 v -0.3992 c 0,-0.1495 0.130516,-0.2691 0.293586,-0.2691 z"
           style="color:#000000;clip-rule:nonzero;display:inline;overflow:visible;visibility:visible;isolation:auto;mix-blend-mode:normal;color-interpolation:sRGB;color-interpolation-filters:linearRGB;solid-color:#000000;solid-opacity:1;fill:#ffffff;fill-opacity:1;fill-rule:nonzero;stroke:none;stroke-width:0.894776;stroke-linecap:butt;stroke-linejoin:miter;stroke-miterlimit:4;stroke-dasharray:none;stroke-dashoffset:0;stroke-opacity:1;color-rendering:auto;image-rendering:auto;shape-rendering:auto;text-rendering:auto;enable-background:accumulate"
           inkscape:connector-curvature="0"
           sodipodi:nodetypes="ssssssssssssssss" />
        <rect
           style="fill:#ff0066;stroke-width:0.9375;stroke-linecap:round;stroke-linejoin:round;opacity:1"
           id="use4"
           width="9.9851208"
           height="1.7401456"
           x="-8.4792471"
           y="1080.365"
           ry="0.76649266" />
        <path
           id="use5"
           d="m -7.5205196,1079.8075 c -0.849747,0 -1.533837,0.6272 -1.533837,1.4062 0,0.7791 0.68409,1.4063 1.533837,1.4063 h 8.1804664 c 0.8497474,0 1.5338374,-0.6272 1.5338374,-1.4063 0,-0.779 -0.68409,-1.4062 -1.5338374,-1.4062 z m -0.293767,0.9375 h 8.7826495 c 0.1630699,0 0.293586,0.1196 0.293586,0.2691 v 0.3992 c 0,0.1495 -0.1305161,0.2692 -0.293586,0.2692 h -8.7826495 c -0.16307,0 -0.293586,-0.1197 -0.293586,-0.2692 v -0.3992 c 0,-0.1495 0.130516,-0.2691 0.293586,-0.2691 z"
           style="color:#000000;clip-rule:nonzero;display:inline;overflow:visible;visibility:visible;isolation:auto;mix-blend-mode:normal;color-interpolation:sRGB;color-interpolation-filters:linearRGB;solid-color:#000000;solid-opacity:1;fill:#ffffff;fill-opacity:1;fill-rule:nonzero;stroke:none;stroke-width:0.894776;stroke-linecap:butt;stroke-linejoin:miter;stroke-miterlimit:4;stroke-dasharray:none;stroke-dashoffset:0;stroke-opacity:1;color-rendering:auto;image-rendering:auto;shape-rendering:auto;text-rendering:auto;enable-background:accumulate"
           inkscape:connector-curvature="0"
           sodipodi:nodetypes="ssssssssssssssss" />
      </g>
      <path
         sodipodi:nodetypes="cccccccccc"
         inkscape:connector-curvature="0"
         id="path5"
         d="m 184.72396,1075.9467 c 0.38,0.08 0.93737,0.4292 1.37911,0.6805 0.44176,0.2514 0.77813,0.7283 0.77821,1.2113 v 1.0315 h -5.62315 v -1.0332 c 7e-5,-0.4829 0.33645,-0.9591 0.7782,-1.2104 0.44174,-0.2514 0.99912,-0.6004 1.37911,-0.6806 0.44843,-0.1088 0.88376,-0.101 1.30852,0 z"
         style="color:#000000;font-style:normal;font-variant:normal;font-weight:normal;font-stretch:normal;font-size:medium;line-height:normal;font-family:sans-serif;font-variant-ligatures:normal;font-variant-position:normal;font-variant-caps:normal;font-variant-numeric:normal;font-variant-alternates:normal;font-feature-settings:normal;text-indent:0;text-align:start;text-decoration:none;text-decoration-line:none;text-decoration-style:solid;text-decoration-color:#000000;letter-spacing:normal;word-spacing:normal;text-transform:none;writing-mode:lr-tb;direction:ltr;text-orientation:mixed;dominant-baseline:auto;baseline-shift:baseline;text-anchor:start;white-space:normal;shape-padding:0;clip-rule:nonzero;display:inline;overflow:visible;visibility:visible;opacity:1;isolation:auto;mix-blend-mode:normal;color-interpolation:sRGB;color-interpolation-filters:linearRGB;solid-color:#000000;solid-opacity:1;vector-effect:none;fill:#ffffff;fill-opacity:1;fill-rule:nonzero;stroke:none;stroke-width:0.547326;stroke-linecap:butt;stroke-linejoin:round;stroke-miterlimit:4;stroke-dasharray:none;stroke-dashoffset:0;stroke-opacity:1;color-rendering:auto;image-rendering:auto;shape-rendering:auto;text-rendering:auto;enable-background:accumulate" />
    </g>
  </g>
  <g
     style="display:none;opacity:1"
     inkscape:groupmode="layer"
     inkscape:label="Web Slicer"
     id="webslicer-layer"
     transform="translate(-25.13072,-372.84348)"
     sodipodi:insensitive="true">
    <rect
       height="22.5"
       width="22.5"
       y="372.84348"
       x="25.13072"
       id="progress-11"
       style="opacity:0.5;fill:#ccff00;stroke-width:0.703125"
       inkscape:label="#rect1857">
      <desc
         id="desc3668">format: png
dpi: 90
layout-disposition: bg-el-norepeat
layout-position-anchor: tl</desc>
    </rect>
  </g>
  <style
     type="text/css"
     id="style3760">
#P1 {fill:url(#LO)}
rect {opacity:.40740739;fill:#000cff;width:.50507629;height:0}
</style>
  <style
     type="text/css"
     id="style3828">
#P1 {fill:url(#LO)}
rect {opacity:.40740739;fill:#000cff;width:.50507629;height:0}
</style>
</svg>
