<?xml version="1.0" encoding="UTF-8" standalone="no"?>
<svg
   width="24"
   height="24"
   id="svg11024"
   version="1.1"
   inkscape:version="1.4 (e7c3feb100, 2024-10-09)"
   sodipodi:docname="progress-16.svg"
   viewBox="0 0 22.5 22.5"
   xmlns:inkscape="http://www.inkscape.org/namespaces/inkscape"
   xmlns:sodipodi="http://sodipodi.sourceforge.net/DTD/sodipodi-0.dtd"
   xmlns="http://www.w3.org/2000/svg"
   xmlns:svg="http://www.w3.org/2000/svg"
   xmlns:rdf="http://www.w3.org/1999/02/22-rdf-syntax-ns#"
   xmlns:cc="http://creativecommons.org/ns#"
   xmlns:dc="http://purl.org/dc/elements/1.1/">
  <sodipodi:namedview
     id="base"
     pagecolor="#808080"
     bordercolor="#666666"
     borderopacity="1.0"
     inkscape:pageopacity="0"
     inkscape:pageshadow="2"
     inkscape:zoom="22.627417"
     inkscape:cx="18.539456"
     inkscape:cy="14.053747"
     inkscape:document-units="px"
     inkscape:current-layer="layer1"
     showgrid="true"
     showborder="true"
     inkscape:snap-bbox="true"
     inkscape:window-width="1920"
     inkscape:window-height="1052"
     inkscape:window-x="0"
     inkscape:window-y="0"
     inkscape:window-maximized="1"
     inkscape:snap-global="true"
     showguides="true"
     inkscape:guide-bbox="true"
     fit-margin-top="0"
     fit-margin-left="0"
     fit-margin-right="0"
     fit-margin-bottom="0"
     inkscape:bbox-paths="true"
     inkscape:snap-bbox-edge-midpoints="false"
     inkscape:snap-bbox-midpoints="false"
     inkscape:bbox-nodes="true"
     inkscape:snap-others="true"
     inkscape:snap-nodes="false"
     inkscape:snap-object-midpoints="false"
     units="px"
     inkscape:snap-page="true"
     inkscape:object-paths="false"
     inkscape:object-nodes="true"
     inkscape:snap-smooth-nodes="true"
     inkscape:snap-grids="true"
     inkscape:snap-center="false"
     inkscape:snap-to-guides="true"
     inkscape:document-rotation="0"
     inkscape:showpageshadow="2"
     inkscape:pagecheckerboard="0"
     inkscape:deskcolor="#808080">
    <inkscape:grid
       id="grid11941"
       type="xygrid"
       snapvisiblegridlinesonly="true"
       enabled="true"
       visible="true"
       empspacing="24"
       originx="-187.5001"
       originy="1.8749695"
       color="#ff4e4e"
       opacity="0.662745"
       empcolor="#ffe63f"
       empopacity="0.8627451"
       spacingy="0.9375"
       spacingx="0.9375"
       units="px" />
    <sodipodi:guide
       position="-300.14049,297.66965"
       orientation="1,0"
       id="guide1126"
       inkscape:locked="false" />
    <sodipodi:guide
       position="-298.51755,308.98166"
       orientation="0.70710678,0.70710678"
       id="guide1137"
       inkscape:locked="false" />
    <sodipodi:guide
       position="-294.31895,298.31548"
       orientation="0.92560877,0.37848172"
       id="guide1139"
       inkscape:locked="false" />
    <sodipodi:guide
       position="-298.5797,308.98166"
       orientation="1,0"
       id="guide1141"
       inkscape:locked="false" />
    <sodipodi:guide
       position="-292.75941,298.97846"
       orientation="0.39127249,-0.92027487"
       id="guide1147"
       inkscape:locked="false" />
    <sodipodi:guide
       position="-292.75225,290.00686"
       orientation="-0.92560834,-0.37848275"
       id="guide1157"
       inkscape:locked="false" />
    <sodipodi:guide
       position="-292.75941,298.97846"
       orientation="0.92560574,0.37848912"
       id="guide1159"
       inkscape:locked="false" />
    <sodipodi:guide
       position="-249.54359,262.02266"
       orientation="1,0"
       id="guide1178"
       inkscape:locked="false" />
    <sodipodi:guide
       position="-247.49768,262.02996"
       orientation="1,0"
       id="guide1180"
       inkscape:locked="false" />
  </sodipodi:namedview>
  <defs
     id="defs11026">
    <foreignObject
       id="foreignObject5"
       requiredExtensions="http://ns.adobe.com/AdobeIllustrator/10.0/"
       height="1"
       width="1"
       y="0"
       x="0" />
  </defs>
  <metadata
     id="metadata11029">
    <rdf:RDF>
      <cc:Work
         rdf:about="">
        <dc:format>image/svg+xml</dc:format>
        <dc:type
           rdf:resource="http://purl.org/dc/dcmitype/StillImage" />
        <cc:license
           rdf:resource="https://en.wikipedia.org/wiki/MIT_License" />
      </cc:Work>
    </rdf:RDF>
  </metadata>
  <g
     style="display:inline;opacity:1"
     transform="translate(-212.63072,-1094.2057)"
     id="layer1"
     inkscape:groupmode="layer"
     inkscape:label="Cursors">
    <path
       id="path6"
       style="opacity:0.2;stroke-linecap:round;stroke-linejoin:round;paint-order:fill markers stroke"
       d="M 226.39293 1095.5552 C 226.25457 1095.5498 226.11288 1095.565 225.97178 1095.6028 L 218.72813 1097.5437 C 217.97579 1097.7453 217.53222 1098.5145 217.73387 1099.2667 C 217.89269 1099.8593 218.40387 1100.2541 218.98082 1100.2994 L 219.39647 1101.854 C 219.72364 1103.0754 220.48516 1103.874 221.28428 1104.3461 C 221.95836 1104.7468 222.59933 1104.8573 223.14464 1104.9393 L 223.24534 1105.3129 C 222.80402 1105.6823 222.32543 1106.1465 221.95628 1106.851 C 221.51718 1107.6876 221.24218 1108.7376 221.53148 1109.8173 L 221.93614 1111.3316 C 221.45867 1111.6591 221.21372 1112.257 221.37218 1112.8495 C 221.57378 1113.6018 222.34271 1114.0454 223.0952 1113.8438 L 226.08531 1113.0418 A 0.46879738 0.46879738 0 0 0 226.13475 1113.3695 C 226.56382 1114.0705 226.97234 1114.5813 227.56663 1114.8508 C 228.16091 1115.1202 228.84501 1115.103 229.7346 1114.9314 A 0.46879738 0.46879738 0 0 0 230.07884 1114.6476 L 232.05638 1109.8118 L 234.27196 1113.148 A 0.46879738 0.46879738 0 0 0 235.13072 1112.888 L 235.12706 1097.4869 A 0.46879738 0.46879738 0 0 0 234.83775 1097.0548 A 0.46879738 0.46879738 0 0 0 234.56676 1097.0274 A 0.46879738 0.46879738 0 0 0 234.32689 1097.1555 L 226.7097 1104.7709 C 226.44374 1104.6901 226.18745 1104.6337 225.94615 1104.5914 L 225.84544 1104.2161 C 226.27663 1103.8726 226.77729 1103.456 227.16197 1102.7732 C 227.61714 1101.9649 227.87543 1100.893 227.54832 1099.6714 L 227.13084 1098.115 C 227.60852 1097.7873 227.85367 1097.1901 227.69481 1096.5971 C 227.53106 1095.9858 226.99249 1095.5783 226.39293 1095.5552 z " />
    <path
       sodipodi:nodetypes="cccccccc"
       inkscape:transform-center-y="8.0207106"
       inkscape:transform-center-x="-5.434279"
       inkscape:connector-curvature="0"
       id="path10"
       d="m 233.72058,1095.6118 0.004,15.4017 -2.70501,-4.0724 -2.31203,5.6543 c -1.70258,0.3282 -2.28627,0 -3.11069,-1.3468 l 2.30364,-5.6338 -4.93332,0.7504 z"
       style="display:inline;fill:#000000;stroke:#ffffff;stroke-width:0.937501;stroke-linecap:round;stroke-linejoin:round;stroke-miterlimit:4;stroke-dasharray:none;paint-order:fill markers stroke" />
    <g
       transform="rotate(165,201.10372,1091.4406)"
       style="display:inline"
       id="use2282-3">
      <g
         id="g5"
         transform="translate(187.5)">
        <path
           sodipodi:nodetypes="ccccccccccccccccccccccccc"
           inkscape:connector-curvature="0"
           id="path1"
           d="m -7.5605504,345.02731 8.23242158,-0.14648 0.73144792,0.45819 0.058013,0.97587 -0.65497236,0.5597 -0.0908759,2.33709 c -0.84603204,1.25294 -1.57036684,2.74927 -2.83274444,3.16951 l -0.1334634,0.85457 c 1.2608965,0.1704 2.20149707,1.30168 3.02262711,2.79137 l 0.0669938,2.85178 0.74371319,0.48317 0.013375,1.06755 -0.77762913,0.3301 -8.67187457,0.0293 -0.5257284,-0.2714 -0.047547,-1.1996 0.6087789,-0.32239 0.057135,-2.88607 c 0.5630629,-1.29491 1.1055462,-2.60612 2.9606418,-2.87817 l 0.042815,-0.90445 c -1.7946939,-0.65365 -2.4583361,-1.89544 -2.8860815,-3.2599 l -0.1449978,-2.28348 -0.5861632,-0.41214 -0.041573,-1.05807 z"
           style="display:inline;opacity:1;fill:#000000;stroke-width:0.703125"
           transform="translate(0,721.36218)">
          <desc
             id="desc1">format: png
dpi: 90
layout-disposition: bg-el-norepeat
layout-position-anchor: tl</desc>
        </path>
        <path
           style="fill:none;stroke:#ffffff;stroke-width:0.9375;stroke-linejoin:round;stroke-miterlimit:4;stroke-dasharray:none"
           d="m -7.6479926,1068.0607 1.901e-4,1.9795 c 1.858e-4,1.9342 1.8680262,3.3385 2.8193633,3.681 v 0.8586 c -0.980331,0.3716 -2.8191476,1.4269 -2.8193636,3.7036 l -1.92e-4,2.0234"
           id="path2"
           inkscape:connector-curvature="0"
           sodipodi:nodetypes="csccsc" />
        <path
           sodipodi:nodetypes="csccsc"
           inkscape:connector-curvature="0"
           id="path3"
           d="m 0.78739308,1068.1486 -1.8168e-4,1.8915 c -1.858e-4,1.9342 -1.8680262,3.3385 -2.8193633,3.681 v 0.8586 c 0.980331,0.3716 2.8191476,1.4269 2.8193636,3.7036 l 1.8921e-4,1.9942"
           style="fill:none;stroke:#ffffff;stroke-width:0.9375;stroke-linejoin:round;stroke-miterlimit:4;stroke-dasharray:none" />
        <rect
           style="opacity:1;fill:#ff0066;stroke-width:0.9375;stroke-linecap:round;stroke-linejoin:round"
           id="rect3"
           width="9.9851208"
           height="1.7401456"
           x="-8.4792471"
           y="1066.1936"
           ry="0.76649266" />
        <path
           id="path4"
           d="m -7.5223788,1065.745 c -0.849747,0 -1.533837,0.6272 -1.533837,1.4062 0,0.7791 0.68409,1.4063 1.533837,1.4063 h 8.1804664 c 0.8497474,0 1.5338374,-0.6272 1.5338374,-1.4063 0,-0.779 -0.68409,-1.4062 -1.5338374,-1.4062 z m -0.293767,0.9375 h 8.7826495 c 0.1630699,0 0.293586,0.1196 0.293586,0.2691 v 0.3992 c 0,0.1495 -0.1305161,0.2692 -0.293586,0.2692 h -8.7826495 c -0.16307,0 -0.293586,-0.1197 -0.293586,-0.2692 v -0.3992 c 0,-0.1495 0.130516,-0.2691 0.293586,-0.2691 z"
           style="color:#000000;clip-rule:nonzero;display:inline;overflow:visible;visibility:visible;isolation:auto;mix-blend-mode:normal;color-interpolation:sRGB;color-interpolation-filters:linearRGB;solid-color:#000000;solid-opacity:1;fill:#ffffff;fill-opacity:1;fill-rule:nonzero;stroke:none;stroke-width:0.894776;stroke-linecap:butt;stroke-linejoin:miter;stroke-miterlimit:4;stroke-dasharray:none;stroke-dashoffset:0;stroke-opacity:1;color-rendering:auto;image-rendering:auto;shape-rendering:auto;text-rendering:auto;enable-background:accumulate"
           inkscape:connector-curvature="0"
           sodipodi:nodetypes="ssssssssssssssss" />
        <rect
           style="fill:#ff0066;stroke-width:0.9375;stroke-linecap:round;stroke-linejoin:round;opacity:1"
           id="use4"
           width="9.9851208"
           height="1.7401456"
           x="-8.4792471"
           y="1080.365"
           ry="0.76649266" />
        <path
           id="use5"
           d="m -7.5205196,1079.8075 c -0.849747,0 -1.533837,0.6272 -1.533837,1.4062 0,0.7791 0.68409,1.4063 1.533837,1.4063 h 8.1804664 c 0.8497474,0 1.5338374,-0.6272 1.5338374,-1.4063 0,-0.779 -0.68409,-1.4062 -1.5338374,-1.4062 z m -0.293767,0.9375 h 8.7826495 c 0.1630699,0 0.293586,0.1196 0.293586,0.2691 v 0.3992 c 0,0.1495 -0.1305161,0.2692 -0.293586,0.2692 h -8.7826495 c -0.16307,0 -0.293586,-0.1197 -0.293586,-0.2692 v -0.3992 c 0,-0.1495 0.130516,-0.2691 0.293586,-0.2691 z"
           style="color:#000000;clip-rule:nonzero;display:inline;overflow:visible;visibility:visible;isolation:auto;mix-blend-mode:normal;color-interpolation:sRGB;color-interpolation-filters:linearRGB;solid-color:#000000;solid-opacity:1;fill:#ffffff;fill-opacity:1;fill-rule:nonzero;stroke:none;stroke-width:0.894776;stroke-linecap:butt;stroke-linejoin:miter;stroke-miterlimit:4;stroke-dasharray:none;stroke-dashoffset:0;stroke-opacity:1;color-rendering:auto;image-rendering:auto;shape-rendering:auto;text-rendering:auto;enable-background:accumulate"
           inkscape:connector-curvature="0"
           sodipodi:nodetypes="ssssssssssssssss" />
      </g>
      <path
         sodipodi:nodetypes="cccccccccc"
         inkscape:connector-curvature="0"
         id="path5"
         d="m 184.72396,1075.9467 c 0.38,0.08 0.93737,0.4292 1.37911,0.6805 0.44176,0.2514 0.77813,0.7283 0.77821,1.2113 v 1.0315 h -5.62315 v -1.0332 c 7e-5,-0.4829 0.33645,-0.9591 0.7782,-1.2104 0.44174,-0.2514 0.99912,-0.6004 1.37911,-0.6806 0.44843,-0.1088 0.88376,-0.101 1.30852,0 z"
         style="color:#000000;font-style:normal;font-variant:normal;font-weight:normal;font-stretch:normal;font-size:medium;line-height:normal;font-family:sans-serif;font-variant-ligatures:normal;font-variant-position:normal;font-variant-caps:normal;font-variant-numeric:normal;font-variant-alternates:normal;font-feature-settings:normal;text-indent:0;text-align:start;text-decoration:none;text-decoration-line:none;text-decoration-style:solid;text-decoration-color:#000000;letter-spacing:normal;word-spacing:normal;text-transform:none;writing-mode:lr-tb;direction:ltr;text-orientation:mixed;dominant-baseline:auto;baseline-shift:baseline;text-anchor:start;white-space:normal;shape-padding:0;clip-rule:nonzero;display:inline;overflow:visible;visibility:visible;opacity:1;isolation:auto;mix-blend-mode:normal;color-interpolation:sRGB;color-interpolation-filters:linearRGB;solid-color:#000000;solid-opacity:1;vector-effect:none;fill:#ffffff;fill-opacity:1;fill-rule:nonzero;stroke:none;stroke-width:0.547326;stroke-linecap:butt;stroke-linejoin:round;stroke-miterlimit:4;stroke-dasharray:none;stroke-dashoffset:0;stroke-opacity:1;color-rendering:auto;image-rendering:auto;shape-rendering:auto;text-rendering:auto;enable-background:accumulate" />
    </g>
  </g>
  <g
     style="display:none;opacity:1"
     inkscape:groupmode="layer"
     inkscape:label="Web Slicer"
     id="webslicer-layer"
     transform="translate(-212.63072,-372.84348)"
     sodipodi:insensitive="true">
    <rect
       inkscape:label="#rect1857"
       style="opacity:0.5;fill:#ccff00;stroke-width:0.703125"
       id="progress-16"
       x="212.63072"
       y="372.84348"
       width="22.5"
       height="22.5">
      <desc
         id="desc3698">format: png
dpi: 90
layout-disposition: bg-el-norepeat
layout-position-anchor: tl</desc>
    </rect>
  </g>
  <style
     type="text/css"
     id="style3760">
#P1 {fill:url(#LO)}
rect {opacity:.40740739;fill:#000cff;width:.50507629;height:0}
</style>
  <style
     type="text/css"
     id="style3828">
#P1 {fill:url(#LO)}
rect {opacity:.40740739;fill:#000cff;width:.50507629;height:0}
</style>
</svg>
