<?xml version="1.0" encoding="UTF-8" standalone="no"?>
<svg
   width="24"
   height="24"
   id="svg11024"
   version="1.1"
   inkscape:version="1.4 (e7c3feb100, 2024-10-09)"
   sodipodi:docname="progress-2.svg"
   viewBox="0 0 22.5 22.5"
   xmlns:inkscape="http://www.inkscape.org/namespaces/inkscape"
   xmlns:sodipodi="http://sodipodi.sourceforge.net/DTD/sodipodi-0.dtd"
   xmlns="http://www.w3.org/2000/svg"
   xmlns:svg="http://www.w3.org/2000/svg"
   xmlns:rdf="http://www.w3.org/1999/02/22-rdf-syntax-ns#"
   xmlns:cc="http://creativecommons.org/ns#"
   xmlns:dc="http://purl.org/dc/elements/1.1/">
  <sodipodi:namedview
     id="base"
     pagecolor="#808080"
     bordercolor="#666666"
     borderopacity="1.0"
     inkscape:pageopacity="0"
     inkscape:pageshadow="2"
     inkscape:zoom="22.627417"
     inkscape:cx="15.976194"
     inkscape:cy="16.528621"
     inkscape:document-units="px"
     inkscape:current-layer="layer1"
     showgrid="true"
     showborder="true"
     inkscape:snap-bbox="true"
     inkscape:window-width="1920"
     inkscape:window-height="1052"
     inkscape:window-x="0"
     inkscape:window-y="0"
     inkscape:window-maximized="1"
     inkscape:snap-global="true"
     showguides="true"
     inkscape:guide-bbox="true"
     fit-margin-top="0"
     fit-margin-left="0"
     fit-margin-right="0"
     fit-margin-bottom="0"
     inkscape:bbox-paths="true"
     inkscape:snap-bbox-edge-midpoints="false"
     inkscape:snap-bbox-midpoints="false"
     inkscape:bbox-nodes="true"
     inkscape:snap-others="true"
     inkscape:snap-nodes="false"
     inkscape:snap-object-midpoints="false"
     units="px"
     inkscape:snap-page="true"
     inkscape:object-paths="false"
     inkscape:object-nodes="true"
     inkscape:snap-smooth-nodes="true"
     inkscape:snap-grids="true"
     inkscape:snap-center="false"
     inkscape:snap-to-guides="true"
     inkscape:document-rotation="0"
     inkscape:showpageshadow="2"
     inkscape:pagecheckerboard="0"
     inkscape:deskcolor="#808080">
    <inkscape:grid
       id="grid11941"
       type="xygrid"
       snapvisiblegridlinesonly="true"
       enabled="true"
       visible="true"
       empspacing="24"
       originx="-37.500002"
       originy="39.375"
       color="#ff4e4e"
       opacity="0.662745"
       empcolor="#ffe63f"
       empopacity="0.8627451"
       spacingy="0.9375"
       spacingx="0.9375"
       units="px" />
    <sodipodi:guide
       position="-150.14039,260.16961"
       orientation="1,0"
       id="guide1126"
       inkscape:locked="false" />
    <sodipodi:guide
       position="-148.51746,271.48162"
       orientation="0.70710678,0.70710678"
       id="guide1137"
       inkscape:locked="false" />
    <sodipodi:guide
       position="-144.31885,260.81544"
       orientation="0.92560877,0.37848172"
       id="guide1139"
       inkscape:locked="false" />
    <sodipodi:guide
       position="-148.57961,271.48162"
       orientation="1,0"
       id="guide1141"
       inkscape:locked="false" />
    <sodipodi:guide
       position="-142.75931,261.47842"
       orientation="0.39127249,-0.92027487"
       id="guide1147"
       inkscape:locked="false" />
    <sodipodi:guide
       position="-142.75216,252.50682"
       orientation="-0.92560834,-0.37848275"
       id="guide1157"
       inkscape:locked="false" />
    <sodipodi:guide
       position="-142.75931,261.47842"
       orientation="0.92560574,0.37848912"
       id="guide1159"
       inkscape:locked="false" />
    <sodipodi:guide
       position="-99.543497,224.52262"
       orientation="1,0"
       id="guide1178"
       inkscape:locked="false" />
    <sodipodi:guide
       position="-97.497583,224.52992"
       orientation="1,0"
       id="guide1180"
       inkscape:locked="false" />
  </sodipodi:namedview>
  <defs
     id="defs11026">
    <foreignObject
       id="foreignObject5"
       requiredExtensions="http://ns.adobe.com/AdobeIllustrator/10.0/"
       height="1"
       width="1"
       y="0"
       x="0" />
  </defs>
  <metadata
     id="metadata11029">
    <rdf:RDF>
      <cc:Work
         rdf:about="">
        <dc:format>image/svg+xml</dc:format>
        <dc:type
           rdf:resource="http://purl.org/dc/dcmitype/StillImage" />
        <cc:license
           rdf:resource="https://en.wikipedia.org/wiki/MIT_License" />
      </cc:Work>
    </rdf:RDF>
  </metadata>
  <g
     style="display:inline;opacity:1"
     transform="translate(-62.630627,-1056.7056)"
     id="layer1"
     inkscape:groupmode="layer"
     inkscape:label="Cursors">
    <path
       id="path1"
       style="opacity:0.2;stroke-linecap:round;stroke-linejoin:round;paint-order:fill markers stroke"
       d="M 70.601208 1059.5181 C 69.822144 1059.5181 69.194958 1060.1454 69.194958 1060.9244 C 69.194958 1061.5384 69.586116 1062.0537 70.132458 1062.2464 L 70.132458 1063.8119 C 70.132565 1064.9299 70.669471 1065.8711 71.309826 1066.5658 C 71.848454 1067.1502 72.430554 1067.475 72.952282 1067.7176 L 72.952282 1068.1057 C 72.447022 1068.3263 71.856206 1068.6003 71.307995 1069.1604 C 70.658986 1069.8234 70.132578 1070.7908 70.132458 1072.0553 L 70.132458 1073.6667 C 69.5863 1073.8595 69.194958 1074.373 69.194958 1074.9869 C 69.194958 1075.7659 69.822144 1076.3931 70.601208 1076.3931 L 76.480725 1076.3931 C 76.796877 1076.8272 77.132643 1077.154 77.56654 1077.3507 C 78.160819 1077.6201 78.844927 1077.6028 79.734509 1077.4313 A 0.46879738 0.46879738 0 0 0 80.078747 1077.1475 L 82.056286 1072.3117 L 84.271862 1075.6479 A 0.46879738 0.46879738 0 0 0 85.130627 1075.3879 L 85.126965 1059.9869 A 0.46879738 0.46879738 0 0 0 84.837658 1059.5547 A 0.46879738 0.46879738 0 0 0 84.566662 1059.5273 A 0.46879738 0.46879738 0 0 0 84.326794 1059.6554 L 75.834362 1068.146 C 75.80635 1068.1337 75.775832 1068.1196 75.748303 1068.1076 L 75.748303 1067.7194 C 76.270268 1067.4769 76.851769 1067.1525 77.390759 1066.5677 C 78.031114 1065.873 78.56985 1064.9318 78.569958 1063.8138 L 78.569958 1062.2445 C 79.115429 1062.0513 79.507458 1061.5377 79.507458 1060.9244 C 79.507458 1060.1454 78.880271 1059.5181 78.101208 1059.5181 L 70.601208 1059.5181 z " />
    <path
       sodipodi:nodetypes="cccccccc"
       inkscape:transform-center-y="8.0207106"
       inkscape:transform-center-x="-5.434279"
       inkscape:connector-curvature="0"
       id="path11"
       d="m 83.720471,1058.1118 0.0038,15.4017 -2.705008,-4.0724 -2.312032,5.6543 c -1.70258,0.3282 -2.286267,0 -3.110696,-1.3468 l 2.30364,-5.6338 -4.933312,0.7504 z"
       style="display:inline;fill:#000000;stroke:#ffffff;stroke-width:0.937501;stroke-linecap:round;stroke-linejoin:round;stroke-miterlimit:4;stroke-dasharray:none;paint-order:fill markers stroke" />
    <g
       style="display:inline"
       id="use2226"
       transform="translate(76.374342,-8.101853)">
      <path
         sodipodi:nodetypes="ccccccccccccccccccccccccc"
         inkscape:connector-curvature="0"
         id="path3"
         d="m -7.5605504,344.98336 8.26171846,-0.14648 0.51920494,0.41862 0.3158177,0.88029 -0.77619331,0.6807 -0.0152171,2.39519 c -0.84603204,1.25294 -1.57036684,2.74927 -2.83274449,3.16951 l -0.1334634,0.85457 c 1.26089655,0.1704 2.20149712,1.30168 3.02262716,2.79137 l 0.0282894,2.95348 0.78478894,0.31086 -0.057009,1.25019 -0.70961666,0.33526 -8.70117154,0.0293 -0.6182844,-0.66656 0.064741,-0.81227 0.742704,-0.41576 -0.096521,-2.90206 c 0.5630629,-1.29491 1.1055462,-2.60612 2.9606418,-2.87817 l 0.042815,-0.90445 c -1.7946939,-0.65365 -2.4583361,-1.89544 -2.8860815,-3.2599 l -0.038686,-2.39911 -0.603223,-0.39346 -0.024881,-1.02599 z"
         style="display:inline;opacity:1;fill:#000000;stroke-width:0.703125"
         transform="translate(0,721.36218)">
        <desc
           id="desc3">format: png
dpi: 90
layout-disposition: bg-el-norepeat
layout-position-anchor: tl</desc>
      </path>
      <path
         style="fill:none;stroke:#ffffff;stroke-width:0.9375;stroke-linejoin:round;stroke-miterlimit:4;stroke-dasharray:none"
         d="m -7.6480053,1067.9289 2.028e-4,2.1113 c 1.858e-4,1.9342 1.8680262,3.3385 2.8193633,3.681 v 0.8586 c -0.980331,0.3716 -2.8191476,1.4269 -2.8193636,3.7036 l -1.915e-4,2.0179"
         id="path4"
         inkscape:connector-curvature="0"
         sodipodi:nodetypes="csccsc" />
      <path
         sodipodi:nodetypes="csccsc"
         inkscape:connector-curvature="0"
         id="path5"
         d="m 0.78741298,1067.9289 -2.0278e-4,2.1112 c -1.858e-4,1.9342 -1.8680262,3.3385 -2.8193633,3.681 v 0.8586 c 0.980331,0.3716 2.8191476,1.4269 2.8193636,3.7036 l 1.8459e-4,1.9455"
         style="fill:none;stroke:#ffffff;stroke-width:0.9375;stroke-linejoin:round;stroke-miterlimit:4;stroke-dasharray:none" />
      <rect
         style="opacity:1;fill:#ff0066;stroke-width:0.9375;stroke-linecap:round;stroke-linejoin:round"
         id="rect5"
         width="10.026553"
         height="1.5329853"
         x="-8.421793"
         y="1066.4009"
         ry="0.76649266" />
      <path
         id="path7"
         d="m -7.520728,1065.745 c -0.8497474,0 -1.5338374,0.6272 -1.5338374,1.4062 0,0.7791 0.68409,1.4063 1.5338374,1.4063 h 8.18046593 c 0.84974737,0 1.53383737,-0.6272 1.53383737,-1.4063 0,-0.779 -0.68409,-1.4062 -1.53383737,-1.4062 z m -0.2937677,0.9375 h 8.78264967 c 0.16306993,0 0.29358603,0.1196 0.29358603,0.2691 v 0.3992 c 0,0.1495 -0.1305161,0.2692 -0.29358603,0.2692 H -7.8144957 c -0.16307,0 -0.293586,-0.1197 -0.293586,-0.2692 v -0.3992 c 0,-0.1495 0.130516,-0.2691 0.293586,-0.2691 z"
         style="color:#000000;clip-rule:nonzero;display:inline;overflow:visible;visibility:visible;opacity:1;isolation:auto;mix-blend-mode:normal;color-interpolation:sRGB;color-interpolation-filters:linearRGB;solid-color:#000000;solid-opacity:1;fill:#ffffff;fill-opacity:1;fill-rule:nonzero;stroke:none;stroke-width:0.894776;stroke-linecap:butt;stroke-linejoin:miter;stroke-miterlimit:4;stroke-dasharray:none;stroke-dashoffset:0;stroke-opacity:1;color-rendering:auto;image-rendering:auto;shape-rendering:auto;text-rendering:auto;enable-background:accumulate"
         inkscape:connector-curvature="0"
         sodipodi:nodetypes="ssssssssssssssss" />
      <rect
         style="fill:#ff0066;stroke-width:0.9375;stroke-linecap:round;stroke-linejoin:round;opacity:1"
         id="use7"
         width="10.026553"
         height="1.5329853"
         x="-8.421793"
         y="1080.5616"
         ry="0.76649266" />
      <path
         id="use8"
         d="m -7.5223796,1079.8075 c -0.8497474,0 -1.5338374,0.6272 -1.5338374,1.4062 0,0.7791 0.68409,1.4063 1.5338374,1.4063 h 8.18046593 c 0.84974737,0 1.53383737,-0.6272 1.53383737,-1.4063 0,-0.779 -0.68409,-1.4062 -1.53383737,-1.4062 z m -0.2937677,0.9375 h 8.78264967 c 0.16306993,0 0.29358603,0.1196 0.29358603,0.2691 v 0.3992 c 0,0.1495 -0.1305161,0.2692 -0.29358603,0.2692 H -7.8161473 c -0.16307,0 -0.293586,-0.1197 -0.293586,-0.2692 v -0.3992 c 0,-0.1495 0.130516,-0.2691 0.293586,-0.2691 z"
         style="color:#000000;clip-rule:nonzero;display:inline;overflow:visible;visibility:visible;isolation:auto;mix-blend-mode:normal;color-interpolation:sRGB;color-interpolation-filters:linearRGB;solid-color:#000000;solid-opacity:1;fill:#ffffff;fill-opacity:1;fill-rule:nonzero;stroke:none;stroke-width:0.894776;stroke-linecap:butt;stroke-linejoin:miter;stroke-miterlimit:4;stroke-dasharray:none;stroke-dashoffset:0;stroke-opacity:1;color-rendering:auto;image-rendering:auto;shape-rendering:auto;text-rendering:auto;enable-background:accumulate"
         inkscape:connector-curvature="0"
         sodipodi:nodetypes="ssssssssssssssss" />
    </g>
    <path
       style="display:inline;opacity:1;fill:#ffffff;stroke:none;stroke-width:0.146514"
       d="m 70.150723,1061.6621 c -0.196613,1.6721 1.013073,1.9598 1.845724,2.5068 0.741143,0.4869 1.493664,0.4027 2.026106,-0.093 0.669008,-0.6228 1.625803,-0.7514 1.621672,-2.3517 -2.270377,-1.0358 -4.049494,0.7664 -5.493502,-0.062 z"
       id="path2284"
       inkscape:connector-curvature="0"
       sodipodi:nodetypes="cssccc" />
    <path
       sodipodi:nodetypes="ccsc"
       inkscape:connector-curvature="0"
       id="path2311"
       d="M 75.755627,1070.7681 H 70.13228 c 1.125543,-0.1079 1.846993,-1.3334 2.866176,-1.3416 0.671201,-0.01 0.859488,1.2695 2.757171,1.3416 z"
       style="color:#000000;font-style:normal;font-variant:normal;font-weight:normal;font-stretch:normal;font-size:medium;line-height:normal;font-family:sans-serif;font-variant-ligatures:normal;font-variant-position:normal;font-variant-caps:normal;font-variant-numeric:normal;font-variant-alternates:normal;font-feature-settings:normal;text-indent:0;text-align:start;text-decoration:none;text-decoration-line:none;text-decoration-style:solid;text-decoration-color:#000000;letter-spacing:normal;word-spacing:normal;text-transform:none;writing-mode:lr-tb;direction:ltr;text-orientation:mixed;dominant-baseline:auto;baseline-shift:baseline;text-anchor:start;white-space:normal;shape-padding:0;clip-rule:nonzero;display:inline;overflow:visible;visibility:visible;opacity:1;isolation:auto;mix-blend-mode:normal;color-interpolation:sRGB;color-interpolation-filters:linearRGB;solid-color:#000000;solid-opacity:1;vector-effect:none;fill:#ffffff;fill-opacity:1;fill-rule:nonzero;stroke:none;stroke-width:0.632001;stroke-linecap:butt;stroke-linejoin:round;stroke-miterlimit:4;stroke-dasharray:none;stroke-dashoffset:0;stroke-opacity:1;color-rendering:auto;image-rendering:auto;shape-rendering:auto;text-rendering:auto;enable-background:accumulate" />
  </g>
  <g
     style="display:none;opacity:1"
     inkscape:groupmode="layer"
     inkscape:label="Web Slicer"
     id="webslicer-layer"
     transform="translate(-62.630627,-335.34344)"
     sodipodi:insensitive="true">
    <rect
       height="22.5"
       width="22.5"
       y="335.34344"
       x="62.630627"
       id="progress-2"
       style="opacity:0.5;fill:#ccff00;stroke-width:0.703125"
       inkscape:label="#rect1857">
      <desc
         id="desc3765">format: png
dpi: 90
layout-disposition: bg-el-norepeat
layout-position-anchor: tl</desc>
    </rect>
  </g>
  <style
     type="text/css"
     id="style3760">
#P1 {fill:url(#LO)}
rect {opacity:.40740739;fill:#000cff;width:.50507629;height:0}
</style>
  <style
     type="text/css"
     id="style3828">
#P1 {fill:url(#LO)}
rect {opacity:.40740739;fill:#000cff;width:.50507629;height:0}
</style>
</svg>
