<?xml version="1.0" encoding="UTF-8" standalone="no"?>
<svg
   width="24"
   height="24"
   id="svg11024"
   version="1.1"
   inkscape:version="1.4 (e7c3feb100, 2024-10-09)"
   sodipodi:docname="zoom-out.svg"
   viewBox="0 0 22.5 22.5"
   xmlns:inkscape="http://www.inkscape.org/namespaces/inkscape"
   xmlns:sodipodi="http://sodipodi.sourceforge.net/DTD/sodipodi-0.dtd"
   xmlns="http://www.w3.org/2000/svg"
   xmlns:svg="http://www.w3.org/2000/svg"
   xmlns:rdf="http://www.w3.org/1999/02/22-rdf-syntax-ns#"
   xmlns:cc="http://creativecommons.org/ns#"
   xmlns:dc="http://purl.org/dc/elements/1.1/">
  <sodipodi:namedview
     id="base"
     pagecolor="#808080"
     bordercolor="#666666"
     borderopacity="1.0"
     inkscape:pageopacity="0"
     inkscape:pageshadow="2"
     inkscape:zoom="5.6568542"
     inkscape:cx="6.098796"
     inkscape:cy="32.880465"
     inkscape:document-units="px"
     inkscape:current-layer="layer1"
     showgrid="true"
     showborder="true"
     inkscape:snap-bbox="true"
     inkscape:window-width="1920"
     inkscape:window-height="1052"
     inkscape:window-x="0"
     inkscape:window-y="0"
     inkscape:window-maximized="1"
     inkscape:snap-global="true"
     showguides="true"
     inkscape:guide-bbox="true"
     fit-margin-top="0"
     fit-margin-left="0"
     fit-margin-right="0"
     fit-margin-bottom="0"
     inkscape:bbox-paths="true"
     inkscape:snap-bbox-edge-midpoints="false"
     inkscape:snap-bbox-midpoints="false"
     inkscape:bbox-nodes="true"
     inkscape:snap-others="true"
     inkscape:snap-nodes="false"
     inkscape:snap-object-midpoints="false"
     units="px"
     inkscape:snap-page="true"
     inkscape:object-paths="false"
     inkscape:object-nodes="true"
     inkscape:snap-smooth-nodes="true"
     inkscape:snap-grids="true"
     inkscape:snap-center="false"
     inkscape:snap-to-guides="true"
     inkscape:document-rotation="0"
     inkscape:showpageshadow="2"
     inkscape:pagecheckerboard="0"
     inkscape:deskcolor="#808080">
    <inkscape:grid
       id="grid11941"
       type="xygrid"
       snapvisiblegridlinesonly="true"
       enabled="true"
       visible="true"
       empspacing="24"
       originx="-300.00002"
       originy="76.875"
       color="#ff4e4e"
       opacity="0.662745"
       empcolor="#ffe63f"
       empopacity="0.8627451"
       spacingy="0.9375"
       spacingx="0.9375"
       units="px" />
    <sodipodi:guide
       position="-412.64041,222.66961"
       orientation="1,0"
       id="guide1126"
       inkscape:locked="false" />
    <sodipodi:guide
       position="-411.01748,233.98162"
       orientation="0.70710678,0.70710678"
       id="guide1137"
       inkscape:locked="false" />
    <sodipodi:guide
       position="-406.81887,223.31544"
       orientation="0.92560877,0.37848172"
       id="guide1139"
       inkscape:locked="false" />
    <sodipodi:guide
       position="-411.07963,233.98162"
       orientation="1,0"
       id="guide1141"
       inkscape:locked="false" />
    <sodipodi:guide
       position="-405.25933,223.97842"
       orientation="0.39127249,-0.92027487"
       id="guide1147"
       inkscape:locked="false" />
    <sodipodi:guide
       position="-405.25218,215.00682"
       orientation="-0.92560834,-0.37848275"
       id="guide1157"
       inkscape:locked="false" />
    <sodipodi:guide
       position="-405.25933,223.97842"
       orientation="0.92560574,0.37848912"
       id="guide1159"
       inkscape:locked="false" />
    <sodipodi:guide
       position="-362.04352,187.02262"
       orientation="1,0"
       id="guide1178"
       inkscape:locked="false" />
    <sodipodi:guide
       position="-359.9976,187.02992"
       orientation="1,0"
       id="guide1180"
       inkscape:locked="false" />
  </sodipodi:namedview>
  <defs
     id="defs11026">
    <foreignObject
       id="foreignObject5"
       requiredExtensions="http://ns.adobe.com/AdobeIllustrator/10.0/"
       height="1"
       width="1"
       y="0"
       x="0" />
  </defs>
  <metadata
     id="metadata11029">
    <rdf:RDF>
      <cc:Work
         rdf:about="">
        <dc:format>image/svg+xml</dc:format>
        <dc:type
           rdf:resource="http://purl.org/dc/dcmitype/StillImage" />
        <cc:license
           rdf:resource="https://en.wikipedia.org/wiki/MIT_License" />
      </cc:Work>
    </rdf:RDF>
  </metadata>
  <g
     style="display:inline;opacity:1"
     transform="translate(-325.13065,-1019.2056)"
     id="layer1"
     inkscape:groupmode="layer"
     inkscape:label="Cursors">
    <g
       transform="matrix(-1,0,0,1,597.84117,4.56e-4)"
       style="display:inline"
       id="use1136">
      <path
         inkscape:connector-curvature="0"
         id="path1"
         d="m 259.03687,1022.9675 c -3.87215,0 -7.03125,3.1591 -7.03125,7.0312 0,3.8722 3.1591,7.0313 7.03125,7.0313 1.18401,0 2.25373,-0.3623 3.22266,-0.8789 l 0.26367,0.2637 a 0.93759375,0.93759375 0 0 0 0,1.3476 l 3.75,3.75 a 0.93759375,0.93759375 0 0 0 1.34765,0 l 1.99219,-1.9922 a 0.93759375,0.93759375 0 0 0 0,-1.3476 l -3.75,-3.75 a 0.93759375,0.93759375 0 0 0 -1.31836,0 l -0.11718,-0.1172 c 0.96436,-1.1974 1.64062,-2.6462 1.64062,-4.3067 0,-3.8721 -3.1591,-7.0312 -7.03125,-7.0312 z"
         style="color:#000000;font-style:normal;font-variant:normal;font-weight:normal;font-stretch:normal;font-size:medium;line-height:normal;font-family:Sans;-inkscape-font-specification:Sans;text-indent:0;text-align:start;text-decoration:none;text-decoration-line:none;letter-spacing:normal;word-spacing:normal;text-transform:none;writing-mode:lr-tb;direction:ltr;baseline-shift:baseline;text-anchor:start;display:inline;overflow:visible;visibility:visible;opacity:0.2;fill:#000000;fill-opacity:1;fill-rule:nonzero;stroke:none;stroke-width:1.875;marker:none;enable-background:accumulate" />
      <path
         style="color:#000000;font-style:normal;font-variant:normal;font-weight:normal;font-stretch:normal;font-size:medium;line-height:normal;font-family:Sans;-inkscape-font-specification:Sans;text-indent:0;text-align:start;text-decoration:none;text-decoration-line:none;letter-spacing:normal;word-spacing:normal;text-transform:none;writing-mode:lr-tb;direction:ltr;baseline-shift:baseline;text-anchor:start;display:inline;overflow:visible;visibility:visible;fill:#ffffff;fill-opacity:1;fill-rule:nonzero;stroke:none;stroke-width:1.875;marker:none;enable-background:accumulate"
         d="m 259.03687,1021.0925 c -3.87215,0 -7.03125,3.1591 -7.03125,7.0312 0,3.8722 3.1591,7.0313 7.03125,7.0313 1.18401,0 2.25373,-0.3623 3.22266,-0.8789 l 0.26367,0.2637 a 0.93759375,0.93759375 0 0 0 0,1.3476 l 3.75,3.75 a 0.93759375,0.93759375 0 0 0 1.34765,0 l 1.99219,-1.9922 a 0.93759375,0.93759375 0 0 0 0,-1.3476 l -3.75,-3.75 a 0.93759375,0.93759375 0 0 0 -1.31836,0 l -0.11718,-0.1172 c 0.96436,-1.1974 1.64062,-2.6462 1.64062,-4.3067 0,-3.8721 -3.1591,-7.0312 -7.03125,-7.0312 z"
         id="path2"
         inkscape:connector-curvature="0" />
      <path
         style="display:inline;fill:#000000;fill-opacity:1;stroke:none;stroke-width:0.9375"
         d="m 259.03687,1022.03 c -3.36548,0 -6.09375,2.7283 -6.09375,6.0937 0,3.3655 2.72827,6.0938 6.09375,6.0938 1.27678,0 2.44855,-0.4128 3.42773,-1.084 l 1.40625,1.4063 -0.67382,0.6738 3.75,3.75 1.99218,-1.9922 -3.75,-3.75 -0.67382,0.6445 -1.31836,-1.3183 c 1.18201,-1.1115 1.93359,-2.6733 1.93359,-4.4239 0,-3.3654 -2.72827,-6.0937 -6.09375,-6.0937 z"
         id="path3"
         inkscape:connector-curvature="0" />
    </g>
    <path
       sodipodi:nodetypes="ccccc"
       inkscape:connector-curvature="0"
       id="path1138"
       d="m 338.72438,1022.9556 c -2.84771,0 -5.15624,2.3086 -5.15625,5.1563 1e-5,2.8477 2.30854,5.1562 5.15625,5.1562 2.84772,0 5.15624,-2.3085 5.15625,-5.1562 -10e-6,-2.8477 -2.30853,-5.1563 -5.15625,-5.1563 z"
       style="display:inline;opacity:1;fill:#ff80b2;fill-opacity:1;stroke:none;stroke-width:0.937502" />
    <path
       id="path1140"
       d="m 335.44313,1027.6431 v 0.9375 h 6.5625 v -0.9375 z"
       style="color:#000000;clip-rule:nonzero;display:inline;overflow:visible;visibility:visible;opacity:1;isolation:auto;mix-blend-mode:normal;color-interpolation:sRGB;color-interpolation-filters:linearRGB;solid-color:#000000;solid-opacity:1;fill:#000000;fill-opacity:1;fill-rule:nonzero;stroke:none;stroke-width:0.825836;stroke-linecap:butt;stroke-linejoin:miter;stroke-miterlimit:4;stroke-dasharray:none;stroke-dashoffset:0;stroke-opacity:1;color-rendering:auto;image-rendering:auto;shape-rendering:auto;text-rendering:auto;enable-background:accumulate"
       inkscape:connector-curvature="0"
       sodipodi:nodetypes="ccccc" />
  </g>
  <g
     style="display:none;opacity:1"
     inkscape:groupmode="layer"
     inkscape:label="Web Slicer"
     id="webslicer-layer"
     transform="translate(-325.13065,-297.84344)"
     sodipodi:insensitive="true">
    <rect
       inkscape:label="#zoom"
       style="display:inline;opacity:0.5;fill:#ccff00;stroke-width:0.703125"
       height="22.5"
       width="22.5"
       y="297.84344"
       x="325.13065"
       id="zoom-out">
      <desc
         id="desc2215">format: png
dpi: 90
layout-disposition: bg-el-norepeat
layout-position-anchor: tl</desc>
    </rect>
  </g>
  <style
     type="text/css"
     id="style3760">
#P1 {fill:url(#LO)}
rect {opacity:.40740739;fill:#000cff;width:.50507629;height:0}
</style>
  <style
     type="text/css"
     id="style3828">
#P1 {fill:url(#LO)}
rect {opacity:.40740739;fill:#000cff;width:.50507629;height:0}
</style>
</svg>
